%YAML 1.1
%TAG !u! tag:unity3d.com,2011:
--- !u!1 &101340
GameObject:
  m_ObjectHideFlags: 1
  m_PrefabParentObject: {fileID: 0}
  m_PrefabInternal: {fileID: 100100000}
  serializedVersion: 5
  m_Component:
  - component: {fileID: 483044}
  m_Layer: 8
  m_Name: LeftHandIndex3
  m_TagString: Untagged
  m_Icon: {fileID: 0}
  m_NavMeshLayer: 0
  m_StaticEditorFlags: 0
  m_IsActive: 1
--- !u!1 &106746
GameObject:
  m_ObjectHideFlags: 1
  m_PrefabParentObject: {fileID: 0}
  m_PrefabInternal: {fileID: 100100000}
  serializedVersion: 5
  m_Component:
  - component: {fileID: 498402}
  m_Layer: 8
  m_Name: RightFoot
  m_TagString: Untagged
  m_Icon: {fileID: 0}
  m_NavMeshLayer: 0
  m_StaticEditorFlags: 0
  m_IsActive: 1
--- !u!1 &108208
GameObject:
  m_ObjectHideFlags: 1
  m_PrefabParentObject: {fileID: 0}
  m_PrefabInternal: {fileID: 100100000}
  serializedVersion: 5
  m_Component:
  - component: {fileID: 476542}
  - component: {fileID: 13638836}
  - component: {fileID: 5427426}
  - component: {fileID: 11411596}
  - component: {fileID: 14469178}
  m_Layer: 8
  m_Name: LeftArm
  m_TagString: Untagged
  m_Icon: {fileID: 0}
  m_NavMeshLayer: 0
  m_StaticEditorFlags: 0
  m_IsActive: 1
--- !u!1 &118506
GameObject:
  m_ObjectHideFlags: 1
  m_PrefabParentObject: {fileID: 0}
  m_PrefabInternal: {fileID: 100100000}
  serializedVersion: 5
  m_Component:
  - component: {fileID: 498986}
  m_Layer: 8
  m_Name: RightHandIndex1
  m_TagString: Untagged
  m_Icon: {fileID: 0}
  m_NavMeshLayer: 0
  m_StaticEditorFlags: 0
  m_IsActive: 1
--- !u!1 &119248
GameObject:
  m_ObjectHideFlags: 1
  m_PrefabParentObject: {fileID: 0}
  m_PrefabInternal: {fileID: 100100000}
  serializedVersion: 5
  m_Component:
  - component: {fileID: 493288}
  - component: {fileID: 13627806}
  - component: {fileID: 5473968}
  - component: {fileID: 11424106}
  - component: {fileID: 14482634}
  m_Layer: 8
  m_Name: RightUpLeg
  m_TagString: Untagged
  m_Icon: {fileID: 0}
  m_NavMeshLayer: 0
  m_StaticEditorFlags: 0
  m_IsActive: 1
--- !u!1 &121326
GameObject:
  m_ObjectHideFlags: 0
  m_PrefabParentObject: {fileID: 0}
  m_PrefabInternal: {fileID: 100100000}
  serializedVersion: 5
  m_Component:
  - component: {fileID: 479654}
  m_Layer: 0
  m_Name: ragdollAudioSource
  m_TagString: Untagged
  m_Icon: {fileID: 0}
  m_NavMeshLayer: 0
  m_StaticEditorFlags: 0
  m_IsActive: 1
--- !u!1 &128070
GameObject:
  m_ObjectHideFlags: 1
  m_PrefabParentObject: {fileID: 0}
  m_PrefabInternal: {fileID: 100100000}
  serializedVersion: 5
  m_Component:
  - component: {fileID: 447724}
  - component: {fileID: 11402648}
  - component: {fileID: 13548896}
  m_Layer: 2
  m_Name: leftFoot_trigger
  m_TagString: Weapon
  m_Icon: {fileID: 0}
  m_NavMeshLayer: 0
  m_StaticEditorFlags: 0
  m_IsActive: 1
--- !u!1 &128478
GameObject:
  m_ObjectHideFlags: 1
  m_PrefabParentObject: {fileID: 0}
  m_PrefabInternal: {fileID: 100100000}
  serializedVersion: 5
  m_Component:
  - component: {fileID: 455370}
  m_Layer: 8
  m_Name: LeftToeBase
  m_TagString: Untagged
  m_Icon: {fileID: 0}
  m_NavMeshLayer: 0
  m_StaticEditorFlags: 0
  m_IsActive: 1
--- !u!1 &128924
GameObject:
  m_ObjectHideFlags: 1
  m_PrefabParentObject: {fileID: 0}
  m_PrefabInternal: {fileID: 100100000}
  serializedVersion: 5
  m_Component:
  - component: {fileID: 459740}
  m_Layer: 8
  m_Name: LeftHandIndex4
  m_TagString: Untagged
  m_Icon: {fileID: 0}
  m_NavMeshLayer: 0
  m_StaticEditorFlags: 0
  m_IsActive: 1
--- !u!1 &131052
GameObject:
  m_ObjectHideFlags: 1
  m_PrefabParentObject: {fileID: 0}
  m_PrefabInternal: {fileID: 100100000}
  serializedVersion: 5
  m_Component:
  - component: {fileID: 409948}
  m_Layer: 8
  m_Name: RightToe_End
  m_TagString: Untagged
  m_Icon: {fileID: 0}
  m_NavMeshLayer: 0
  m_StaticEditorFlags: 0
  m_IsActive: 1
--- !u!1 &131308
GameObject:
  m_ObjectHideFlags: 1
  m_PrefabParentObject: {fileID: 0}
  m_PrefabInternal: {fileID: 100100000}
  serializedVersion: 5
  m_Component:
  - component: {fileID: 464544}
  - component: {fileID: 13607548}
  - component: {fileID: 5484096}
  - component: {fileID: 11493366}
  - component: {fileID: 14411264}
  m_Layer: 8
  m_Name: RightForeArm
  m_TagString: Untagged
  m_Icon: {fileID: 0}
  m_NavMeshLayer: 0
  m_StaticEditorFlags: 0
  m_IsActive: 1
--- !u!1 &141370
GameObject:
  m_ObjectHideFlags: 1
  m_PrefabParentObject: {fileID: 0}
  m_PrefabInternal: {fileID: 100100000}
  serializedVersion: 5
  m_Component:
  - component: {fileID: 474802}
  - component: {fileID: 11417900}
  - component: {fileID: 13582650}
  m_Layer: 2
  m_Name: rightFoot_trigger
  m_TagString: Weapon
  m_Icon: {fileID: 0}
  m_NavMeshLayer: 0
  m_StaticEditorFlags: 0
  m_IsActive: 1
--- !u!1 &144290
GameObject:
  m_ObjectHideFlags: 1
  m_PrefabParentObject: {fileID: 0}
  m_PrefabInternal: {fileID: 100100000}
  serializedVersion: 5
  m_Component:
  - component: {fileID: 412204}
  m_Layer: 8
  m_Name: RightHand
  m_TagString: Untagged
  m_Icon: {fileID: 0}
  m_NavMeshLayer: 0
  m_StaticEditorFlags: 0
  m_IsActive: 1
--- !u!1 &144330
GameObject:
  m_ObjectHideFlags: 1
  m_PrefabParentObject: {fileID: 0}
  m_PrefabInternal: {fileID: 100100000}
  serializedVersion: 5
  m_Component:
  - component: {fileID: 469074}
  m_Layer: 8
  m_Name: HeadTop_End
  m_TagString: Untagged
  m_Icon: {fileID: 0}
  m_NavMeshLayer: 0
  m_StaticEditorFlags: 0
  m_IsActive: 1
--- !u!1 &145196
GameObject:
  m_ObjectHideFlags: 1
  m_PrefabParentObject: {fileID: 0}
  m_PrefabInternal: {fileID: 100100000}
  serializedVersion: 5
  m_Component:
  - component: {fileID: 400436}
  - component: {fileID: 13605254}
  - component: {fileID: 5445214}
  - component: {fileID: 11410598}
  - component: {fileID: 14491582}
  m_Layer: 8
  m_Name: RightLeg
  m_TagString: Untagged
  m_Icon: {fileID: 0}
  m_NavMeshLayer: 0
  m_StaticEditorFlags: 0
  m_IsActive: 1
--- !u!1 &145296
GameObject:
  m_ObjectHideFlags: 0
  m_PrefabParentObject: {fileID: 0}
  m_PrefabInternal: {fileID: 100100000}
  serializedVersion: 5
  m_Component:
  - component: {fileID: 428816}
  - component: {fileID: 6523922}
  - component: {fileID: 5402636}
  - component: {fileID: 11428868}
  m_Layer: 8
  m_Name: Hips
  m_TagString: Untagged
  m_Icon: {fileID: 0}
  m_NavMeshLayer: 0
  m_StaticEditorFlags: 0
  m_IsActive: 1
--- !u!1 &145914
GameObject:
  m_ObjectHideFlags: 1
  m_PrefabParentObject: {fileID: 0}
  m_PrefabInternal: {fileID: 100100000}
  serializedVersion: 5
  m_Component:
  - component: {fileID: 498322}
  m_Layer: 8
  m_Name: LeftHandIndex2
  m_TagString: Untagged
  m_Icon: {fileID: 0}
  m_NavMeshLayer: 0
  m_StaticEditorFlags: 0
  m_IsActive: 1
--- !u!1 &149264
GameObject:
  m_ObjectHideFlags: 1
  m_PrefabParentObject: {fileID: 0}
  m_PrefabInternal: {fileID: 100100000}
  serializedVersion: 5
  m_Component:
  - component: {fileID: 487568}
  m_Layer: 8
  m_Name: LeftFoot
  m_TagString: Untagged
  m_Icon: {fileID: 0}
  m_NavMeshLayer: 0
  m_StaticEditorFlags: 0
  m_IsActive: 1
--- !u!1 &149724
GameObject:
  m_ObjectHideFlags: 1
  m_PrefabParentObject: {fileID: 0}
  m_PrefabInternal: {fileID: 100100000}
  serializedVersion: 5
  m_Component:
  - component: {fileID: 434184}
  m_Layer: 8
  m_Name: RightToeBase
  m_TagString: Untagged
  m_Icon: {fileID: 0}
  m_NavMeshLayer: 0
  m_StaticEditorFlags: 0
  m_IsActive: 1
--- !u!1 &150304
GameObject:
  m_ObjectHideFlags: 1
  m_PrefabParentObject: {fileID: 0}
  m_PrefabInternal: {fileID: 100100000}
  serializedVersion: 5
  m_Component:
  - component: {fileID: 444614}
  m_Layer: 8
  m_Name: LeftToe_End
  m_TagString: Untagged
  m_Icon: {fileID: 0}
  m_NavMeshLayer: 0
  m_StaticEditorFlags: 0
  m_IsActive: 1
--- !u!1 &151222
GameObject:
  m_ObjectHideFlags: 1
  m_PrefabParentObject: {fileID: 0}
  m_PrefabInternal: {fileID: 100100000}
  serializedVersion: 5
  m_Component:
  - component: {fileID: 489710}
  m_Layer: 8
  m_Name: LeftHandIndex1
  m_TagString: Untagged
  m_Icon: {fileID: 0}
  m_NavMeshLayer: 0
  m_StaticEditorFlags: 0
  m_IsActive: 1
--- !u!1 &151774
GameObject:
  m_ObjectHideFlags: 1
  m_PrefabParentObject: {fileID: 0}
  m_PrefabInternal: {fileID: 100100000}
  serializedVersion: 5
  m_Component:
  - component: {fileID: 434982}
  m_Layer: 8
  m_Name: RightHandIndex4
  m_TagString: Untagged
  m_Icon: {fileID: 0}
  m_NavMeshLayer: 0
  m_StaticEditorFlags: 0
  m_IsActive: 1
--- !u!1 &152722
GameObject:
  m_ObjectHideFlags: 1
  m_PrefabParentObject: {fileID: 0}
  m_PrefabInternal: {fileID: 100100000}
  serializedVersion: 5
  m_Component:
  - component: {fileID: 454458}
  - component: {fileID: 13660244}
  - component: {fileID: 5436624}
  - component: {fileID: 11472114}
  - component: {fileID: 14459350}
  m_Layer: 8
  m_Name: LeftUpLeg
  m_TagString: Untagged
  m_Icon: {fileID: 0}
  m_NavMeshLayer: 0
  m_StaticEditorFlags: 0
  m_IsActive: 1
--- !u!1 &154170
GameObject:
  m_ObjectHideFlags: 0
  m_PrefabParentObject: {fileID: 0}
  m_PrefabInternal: {fileID: 100100000}
  serializedVersion: 5
  m_Component:
  - component: {fileID: 458086}
  - component: {fileID: 13755562}
  m_Layer: 8
  m_Name: VBot_LowPoly
  m_TagString: Untagged
  m_Icon: {fileID: 0}
  m_NavMeshLayer: 0
  m_StaticEditorFlags: 0
  m_IsActive: 1
--- !u!1 &154662
GameObject:
  m_ObjectHideFlags: 1
  m_PrefabParentObject: {fileID: 0}
  m_PrefabInternal: {fileID: 100100000}
  serializedVersion: 5
  m_Component:
  - component: {fileID: 454448}
  - component: {fileID: 8242088}
  m_Layer: 0
  m_Name: collisionAudio
  m_TagString: Untagged
  m_Icon: {fileID: 0}
  m_NavMeshLayer: 0
  m_StaticEditorFlags: 0
  m_IsActive: 1
--- !u!1 &162094
GameObject:
  m_ObjectHideFlags: 1
  m_PrefabParentObject: {fileID: 0}
  m_PrefabInternal: {fileID: 100100000}
  serializedVersion: 5
  m_Component:
  - component: {fileID: 482942}
  m_Layer: 8
  m_Name: Spine2
  m_TagString: Untagged
  m_Icon: {fileID: 0}
  m_NavMeshLayer: 0
  m_StaticEditorFlags: 0
  m_IsActive: 1
--- !u!1 &163420
GameObject:
  m_ObjectHideFlags: 0
  m_PrefabParentObject: {fileID: 0}
  m_PrefabInternal: {fileID: 100100000}
  serializedVersion: 5
  m_Component:
  - component: {fileID: 454412}
  - component: {fileID: 9536312}
  - component: {fileID: 11405790}
  - component: {fileID: 11411570}
  - component: {fileID: 5464954}
  - component: {fileID: 13644104}
  - component: {fileID: 11424224}
  - component: {fileID: 11456916}
  - component: {fileID: 11458734}
  - component: {fileID: 11490134}
  - component: {fileID: 11465684}
  m_Layer: 8
  m_Name: vBasicController_Mobile
  m_TagString: Player
  m_Icon: {fileID: 0}
  m_NavMeshLayer: 0
  m_StaticEditorFlags: 0
  m_IsActive: 1
--- !u!1 &168322
GameObject:
  m_ObjectHideFlags: 1
  m_PrefabParentObject: {fileID: 0}
  m_PrefabInternal: {fileID: 100100000}
  serializedVersion: 5
  m_Component:
  - component: {fileID: 454720}
  - component: {fileID: 6503908}
  - component: {fileID: 5429300}
  - component: {fileID: 11429552}
  - component: {fileID: 14442696}
  m_Layer: 8
  m_Name: Spine1
  m_TagString: Untagged
  m_Icon: {fileID: 0}
  m_NavMeshLayer: 0
  m_StaticEditorFlags: 0
  m_IsActive: 1
--- !u!1 &168330
GameObject:
  m_ObjectHideFlags: 1
  m_PrefabParentObject: {fileID: 0}
  m_PrefabInternal: {fileID: 100100000}
  serializedVersion: 5
  m_Component:
  - component: {fileID: 497658}
  m_Layer: 8
  m_Name: Neck
  m_TagString: Untagged
  m_Icon: {fileID: 0}
  m_NavMeshLayer: 0
  m_StaticEditorFlags: 0
  m_IsActive: 1
--- !u!1 &169536
GameObject:
  m_ObjectHideFlags: 1
  m_PrefabParentObject: {fileID: 0}
  m_PrefabInternal: {fileID: 100100000}
  serializedVersion: 5
  m_Component:
  - component: {fileID: 443824}
  - component: {fileID: 13602094}
  - component: {fileID: 5438580}
  - component: {fileID: 11452444}
  - component: {fileID: 14454778}
  m_Layer: 8
  m_Name: LeftLeg
  m_TagString: Untagged
  m_Icon: {fileID: 0}
  m_NavMeshLayer: 0
  m_StaticEditorFlags: 0
  m_IsActive: 1
--- !u!1 &170266
GameObject:
  m_ObjectHideFlags: 1
  m_PrefabParentObject: {fileID: 0}
  m_PrefabInternal: {fileID: 100100000}
  serializedVersion: 5
  m_Component:
  - component: {fileID: 409884}
  m_Layer: 8
  m_Name: LeftHand
  m_TagString: Untagged
  m_Icon: {fileID: 0}
  m_NavMeshLayer: 0
  m_StaticEditorFlags: 0
  m_IsActive: 1
--- !u!1 &179662
GameObject:
  m_ObjectHideFlags: 1
  m_PrefabParentObject: {fileID: 0}
  m_PrefabInternal: {fileID: 100100000}
  serializedVersion: 5
  m_Component:
  - component: {fileID: 414282}
  m_Layer: 8
  m_Name: LeftShoulder
  m_TagString: Untagged
  m_Icon: {fileID: 0}
  m_NavMeshLayer: 0
  m_StaticEditorFlags: 0
  m_IsActive: 1
--- !u!1 &180268
GameObject:
  m_ObjectHideFlags: 1
  m_PrefabParentObject: {fileID: 0}
  m_PrefabInternal: {fileID: 100100000}
  serializedVersion: 5
  m_Component:
  - component: {fileID: 443668}
  m_Layer: 8
  m_Name: RightHandIndex3
  m_TagString: Untagged
  m_Icon: {fileID: 0}
  m_NavMeshLayer: 0
  m_StaticEditorFlags: 0
  m_IsActive: 1
--- !u!1 &182318
GameObject:
  m_ObjectHideFlags: 1
  m_PrefabParentObject: {fileID: 0}
  m_PrefabInternal: {fileID: 100100000}
  serializedVersion: 5
  m_Component:
  - component: {fileID: 402680}
  m_Layer: 8
  m_Name: Spine
  m_TagString: Untagged
  m_Icon: {fileID: 0}
  m_NavMeshLayer: 0
  m_StaticEditorFlags: 0
  m_IsActive: 1
--- !u!1 &184648
GameObject:
  m_ObjectHideFlags: 1
  m_PrefabParentObject: {fileID: 0}
  m_PrefabInternal: {fileID: 100100000}
  serializedVersion: 5
  m_Component:
  - component: {fileID: 452888}
  - component: {fileID: 13645836}
  - component: {fileID: 5449866}
  - component: {fileID: 11418770}
  - component: {fileID: 14410638}
  m_Layer: 8
  m_Name: LeftForeArm
  m_TagString: Untagged
  m_Icon: {fileID: 0}
  m_NavMeshLayer: 0
  m_StaticEditorFlags: 0
  m_IsActive: 1
--- !u!1 &190240
GameObject:
  m_ObjectHideFlags: 1
  m_PrefabParentObject: {fileID: 0}
  m_PrefabInternal: {fileID: 100100000}
  serializedVersion: 5
  m_Component:
  - component: {fileID: 462576}
  - component: {fileID: 13544954}
  - component: {fileID: 5421896}
  - component: {fileID: 11436896}
  - component: {fileID: 14422788}
  m_Layer: 8
  m_Name: Head
  m_TagString: Untagged
  m_Icon: {fileID: 0}
  m_NavMeshLayer: 0
  m_StaticEditorFlags: 0
  m_IsActive: 1
--- !u!1 &195258
GameObject:
  m_ObjectHideFlags: 1
  m_PrefabParentObject: {fileID: 0}
  m_PrefabInternal: {fileID: 100100000}
  serializedVersion: 5
  m_Component:
  - component: {fileID: 464224}
  - component: {fileID: 13675024}
  - component: {fileID: 5428268}
  - component: {fileID: 11433176}
  - component: {fileID: 14470370}
  m_Layer: 8
  m_Name: RightArm
  m_TagString: Untagged
  m_Icon: {fileID: 0}
  m_NavMeshLayer: 0
  m_StaticEditorFlags: 0
  m_IsActive: 1
--- !u!1 &196096
GameObject:
  m_ObjectHideFlags: 1
  m_PrefabParentObject: {fileID: 0}
  m_PrefabInternal: {fileID: 100100000}
  serializedVersion: 5
  m_Component:
  - component: {fileID: 406392}
  m_Layer: 8
  m_Name: RightShoulder
  m_TagString: Untagged
  m_Icon: {fileID: 0}
  m_NavMeshLayer: 0
  m_StaticEditorFlags: 0
  m_IsActive: 1
--- !u!1 &196548
GameObject:
  m_ObjectHideFlags: 1
  m_PrefabParentObject: {fileID: 0}
  m_PrefabInternal: {fileID: 100100000}
  serializedVersion: 5
  m_Component:
  - component: {fileID: 447794}
  m_Layer: 8
  m_Name: RightHandIndex2
  m_TagString: Untagged
  m_Icon: {fileID: 0}
  m_NavMeshLayer: 0
  m_StaticEditorFlags: 0
  m_IsActive: 1
--- !u!4 &400436
Transform:
  m_ObjectHideFlags: 1
  m_PrefabParentObject: {fileID: 0}
  m_PrefabInternal: {fileID: 100100000}
  m_GameObject: {fileID: 145196}
  m_LocalRotation: {x: -0.0714344, y: 0.00031262974, z: -0.01156631, w: 0.99737823}
  m_LocalPosition: {x: 4.5586915e-10, y: 0.47350538, z: 7.605884e-11}
  m_LocalScale: {x: 1, y: 1, z: 1}
  m_Children:
  - {fileID: 498402}
  m_Father: {fileID: 493288}
  m_RootOrder: 0
  m_LocalEulerAnglesHint: {x: 0, y: 0, z: 0}
--- !u!4 &402680
Transform:
  m_ObjectHideFlags: 1
  m_PrefabParentObject: {fileID: 0}
  m_PrefabInternal: {fileID: 100100000}
  m_GameObject: {fileID: 182318}
  m_LocalRotation: {x: -0.0074174604, y: 0.000014733671, z: -0.0003990192, w: 0.9999724}
  m_LocalPosition: {x: -0, y: 0.0955027, z: -0.0014181613}
  m_LocalScale: {x: 1, y: 1, z: 1}
  m_Children:
  - {fileID: 454720}
  m_Father: {fileID: 428816}
  m_RootOrder: 2
  m_LocalEulerAnglesHint: {x: 0, y: 0, z: 0}
--- !u!4 &406392
Transform:
  m_ObjectHideFlags: 1
  m_PrefabParentObject: {fileID: 0}
  m_PrefabInternal: {fileID: 100100000}
  m_GameObject: {fileID: 196096}
  m_LocalRotation: {x: 0.5576636, y: 0.43515882, z: -0.55568206, w: 0.4368816}
  m_LocalPosition: {x: 0.062927015, y: 0.1259008, z: 0.00020944524}
  m_LocalScale: {x: 1, y: 1, z: 1}
  m_Children:
  - {fileID: 464224}
  m_Father: {fileID: 482942}
  m_RootOrder: 2
  m_LocalEulerAnglesHint: {x: 0, y: 0, z: 0}
--- !u!4 &409884
Transform:
  m_ObjectHideFlags: 1
  m_PrefabParentObject: {fileID: 0}
  m_PrefabInternal: {fileID: 100100000}
  m_GameObject: {fileID: 170266}
  m_LocalRotation: {x: -0.016956842, y: 0.0006342437, z: 0.019231074, w: 0.99967104}
  m_LocalPosition: {x: 5.30658e-10, y: 0.2957525, z: 4.037733e-10}
  m_LocalScale: {x: 1, y: 1, z: 1}
  m_Children:
  - {fileID: 489710}
  m_Father: {fileID: 452888}
  m_RootOrder: 0
  m_LocalEulerAnglesHint: {x: 0, y: 0, z: 0}
--- !u!4 &409948
Transform:
  m_ObjectHideFlags: 1
  m_PrefabParentObject: {fileID: 0}
  m_PrefabInternal: {fileID: 100100000}
  m_GameObject: {fileID: 131052}
  m_LocalRotation: {x: 0, y: 0, z: 0, w: 1}
  m_LocalPosition: {x: -6.731211e-11, y: 0.06189637, z: 4.6448356e-11}
  m_LocalScale: {x: 1, y: 1, z: 1}
  m_Children: []
  m_Father: {fileID: 434184}
  m_RootOrder: 0
  m_LocalEulerAnglesHint: {x: 0, y: 0, z: 0}
--- !u!4 &412204
Transform:
  m_ObjectHideFlags: 1
  m_PrefabParentObject: {fileID: 0}
  m_PrefabInternal: {fileID: 100100000}
  m_GameObject: {fileID: 144290}
  m_LocalRotation: {x: -0.016700627, y: -0.0005096222, z: -0.010599504, w: 0.9998042}
  m_LocalPosition: {x: -9.0358415e-11, y: 0.29559502, z: 5.9328414e-10}
  m_LocalScale: {x: 1, y: 1, z: 1}
  m_Children:
  - {fileID: 498986}
  m_Father: {fileID: 464544}
  m_RootOrder: 0
  m_LocalEulerAnglesHint: {x: 0, y: 0, z: 0}
--- !u!4 &414282
Transform:
  m_ObjectHideFlags: 1
  m_PrefabParentObject: {fileID: 0}
  m_PrefabInternal: {fileID: 100100000}
  m_GameObject: {fileID: 179662}
  m_LocalRotation: {x: 0.55348104, y: -0.43844208, z: 0.5597608, w: 0.43369934}
  m_LocalPosition: {x: -0.062927015, y: 0.12591468, z: -0.0007250764}
  m_LocalScale: {x: 1, y: 1, z: 1}
  m_Children:
  - {fileID: 476542}
  m_Father: {fileID: 482942}
  m_RootOrder: 0
  m_LocalEulerAnglesHint: {x: 0, y: 0, z: 0}
--- !u!4 &428816
Transform:
  m_ObjectHideFlags: 1
  m_PrefabParentObject: {fileID: 0}
  m_PrefabInternal: {fileID: 100100000}
  m_GameObject: {fileID: 145296}
  m_LocalRotation: {x: -0.0000066532157, y: -0.000011771227, z: 0.0003991176, w: 0.99999994}
  m_LocalPosition: {x: -0.000038921247, y: 1.0609932, z: -0.019340739}
  m_LocalScale: {x: 1, y: 1, z: 1}
  m_Children:
  - {fileID: 454458}
  - {fileID: 493288}
  - {fileID: 402680}
  m_Father: {fileID: 454412}
  m_RootOrder: 0
  m_LocalEulerAnglesHint: {x: 0, y: 0, z: 0}
--- !u!4 &434184
Transform:
  m_ObjectHideFlags: 1
  m_PrefabParentObject: {fileID: 0}
  m_PrefabInternal: {fileID: 100100000}
  m_GameObject: {fileID: 149724}
  m_LocalRotation: {x: 0.2738645, y: -0.014909009, z: 0.0042458726, w: 0.9616434}
  m_LocalPosition: {x: 2.7858296e-10, y: 0.16267334, z: -7.660618e-10}
  m_LocalScale: {x: 1, y: 1, z: 1}
  m_Children:
  - {fileID: 409948}
  m_Father: {fileID: 498402}
  m_RootOrder: 0
  m_LocalEulerAnglesHint: {x: 0, y: 0, z: 0}
--- !u!4 &434982
Transform:
  m_ObjectHideFlags: 1
  m_PrefabParentObject: {fileID: 0}
  m_PrefabInternal: {fileID: 100100000}
  m_GameObject: {fileID: 151774}
  m_LocalRotation: {x: 0, y: 0, z: 0, w: 1}
  m_LocalPosition: {x: -0.0025483456, y: 0.019486126, z: 0.0005655381}
  m_LocalScale: {x: 1, y: 1, z: 1}
  m_Children: []
  m_Father: {fileID: 443668}
  m_RootOrder: 0
  m_LocalEulerAnglesHint: {x: 0, y: 0, z: 0}
--- !u!4 &443668
Transform:
  m_ObjectHideFlags: 1
  m_PrefabParentObject: {fileID: 0}
  m_PrefabInternal: {fileID: 100100000}
  m_GameObject: {fileID: 180268}
  m_LocalRotation: {x: -0.013364742, y: 0.00061438815, z: -0.081318274, w: 0.9965984}
  m_LocalPosition: {x: 0.0016789997, y: 0.016475812, z: -0.00078247086}
  m_LocalScale: {x: 1, y: 1, z: 1}
  m_Children:
  - {fileID: 434982}
  m_Father: {fileID: 447794}
  m_RootOrder: 0
  m_LocalEulerAnglesHint: {x: 0, y: 0, z: 0}
--- !u!4 &443824
Transform:
  m_ObjectHideFlags: 1
  m_PrefabParentObject: {fileID: 0}
  m_PrefabInternal: {fileID: 100100000}
  m_GameObject: {fileID: 169536}
  m_LocalRotation: {x: -0.058214575, y: -0.00040364897, z: 0.011595675, w: 0.99823666}
  m_LocalPosition: {x: 2.9566455e-10, y: 0.4735926, z: -1.3353559e-10}
  m_LocalScale: {x: 1, y: 1, z: 1}
  m_Children:
  - {fileID: 487568}
  m_Father: {fileID: 454458}
  m_RootOrder: 0
  m_LocalEulerAnglesHint: {x: 0, y: 0, z: 0}
--- !u!4 &444614
Transform:
  m_ObjectHideFlags: 1
  m_PrefabParentObject: {fileID: 0}
  m_PrefabInternal: {fileID: 100100000}
  m_GameObject: {fileID: 150304}
  m_LocalRotation: {x: 0, y: 0, z: 0, w: 1}
  m_LocalPosition: {x: -1.304195e-10, y: 0.06294534, z: -4.900726e-11}
  m_LocalScale: {x: 1, y: 1, z: 1}
  m_Children: []
  m_Father: {fileID: 455370}
  m_RootOrder: 0
  m_LocalEulerAnglesHint: {x: 0, y: 0, z: 0}
--- !u!4 &447724
Transform:
  m_ObjectHideFlags: 1
  m_PrefabParentObject: {fileID: 0}
  m_PrefabInternal: {fileID: 100100000}
  m_GameObject: {fileID: 128070}
  m_LocalRotation: {x: 0.027962916, y: -0.46680748, z: -0.8837678, w: 0.016226735}
  m_LocalPosition: {x: -0.00023568759, y: 0.051560115, z: -0.075555444}
  m_LocalScale: {x: 0.9999999, y: 0.99999976, z: 1}
  m_Children: []
  m_Father: {fileID: 487568}
  m_RootOrder: 1
  m_LocalEulerAnglesHint: {x: 0, y: 0, z: 0}
--- !u!4 &447794
Transform:
  m_ObjectHideFlags: 1
  m_PrefabParentObject: {fileID: 0}
  m_PrefabInternal: {fileID: 100100000}
  m_GameObject: {fileID: 196548}
  m_LocalRotation: {x: 0.022370938, y: -0.0023024194, z: -0.00047802264, w: 0.999747}
  m_LocalPosition: {x: -6.2249273e-12, y: 0.01147462, z: 9.289891e-11}
  m_LocalScale: {x: 1, y: 1, z: 1}
  m_Children:
  - {fileID: 443668}
  m_Father: {fileID: 498986}
  m_RootOrder: 0
  m_LocalEulerAnglesHint: {x: 0, y: 0, z: 0}
--- !u!4 &452888
Transform:
  m_ObjectHideFlags: 1
  m_PrefabParentObject: {fileID: 0}
  m_PrefabInternal: {fileID: 100100000}
  m_GameObject: {fileID: 184648}
  m_LocalRotation: {x: 0.03907181, y: -0.00003206704, z: -0.00082011876, w: 0.99923605}
  m_LocalPosition: {x: -2.6060099e-10, y: 0.28874466, z: 1.6679023e-10}
  m_LocalScale: {x: 1, y: 1, z: 1}
  m_Children:
  - {fileID: 409884}
  m_Father: {fileID: 476542}
  m_RootOrder: 0
  m_LocalEulerAnglesHint: {x: 0, y: 0, z: 0}
--- !u!4 &454412
Transform:
  m_ObjectHideFlags: 1
  m_PrefabParentObject: {fileID: 0}
  m_PrefabInternal: {fileID: 100100000}
  m_GameObject: {fileID: 163420}
  m_LocalRotation: {x: 0, y: 0.70710695, z: 0, w: 0.70710665}
  m_LocalPosition: {x: -55.3, y: 0, z: 6.41}
  m_LocalScale: {x: 1, y: 1, z: 1}
  m_Children:
  - {fileID: 428816}
  - {fileID: 458086}
  - {fileID: 479654}
  m_Father: {fileID: 0}
  m_RootOrder: 0
  m_LocalEulerAnglesHint: {x: 0, y: 0, z: 0}
--- !u!4 &454448
Transform:
  m_ObjectHideFlags: 1
  m_PrefabParentObject: {fileID: 0}
  m_PrefabInternal: {fileID: 100100000}
  m_GameObject: {fileID: 154662}
  m_LocalRotation: {x: 0, y: 0, z: 0, w: 1}
  m_LocalPosition: {x: 0, y: 0, z: -0}
  m_LocalScale: {x: 1, y: 1, z: 1}
  m_Children: []
  m_Father: {fileID: 479654}
  m_RootOrder: 0
  m_LocalEulerAnglesHint: {x: 0, y: 0, z: 0}
--- !u!4 &454458
Transform:
  m_ObjectHideFlags: 1
  m_PrefabParentObject: {fileID: 0}
  m_PrefabInternal: {fileID: 100100000}
  m_GameObject: {fileID: 152722}
  m_LocalRotation: {x: -0.00033125663, y: 0.014089781, z: 0.9998821, w: 0.006105338}
  m_LocalPosition: {x: -0.109073006, y: -0.053034514, z: 0.016008982}
  m_LocalScale: {x: 1, y: 1, z: 1}
  m_Children:
  - {fileID: 443824}
  m_Father: {fileID: 428816}
  m_RootOrder: 0
  m_LocalEulerAnglesHint: {x: 0, y: 0, z: 0}
--- !u!4 &454720
Transform:
  m_ObjectHideFlags: 1
  m_PrefabParentObject: {fileID: 0}
  m_PrefabInternal: {fileID: 100100000}
  m_GameObject: {fileID: 168322}
  m_LocalRotation: {x: -0.000000009312198, y: 9.0580625e-13, z: 1.1837033e-11, w: 1}
  m_LocalPosition: {x: -0, y: 0.11143211, z: -5.7468797e-11}
  m_LocalScale: {x: 1, y: 1, z: 1}
  m_Children:
  - {fileID: 482942}
  m_Father: {fileID: 402680}
  m_RootOrder: 0
  m_LocalEulerAnglesHint: {x: 0, y: 0, z: 0}
--- !u!4 &455370
Transform:
  m_ObjectHideFlags: 1
  m_PrefabParentObject: {fileID: 0}
  m_PrefabInternal: {fileID: 100100000}
  m_GameObject: {fileID: 128478}
  m_LocalRotation: {x: 0.28727502, y: 0.00906716, z: -0.0027195273, w: 0.95780134}
  m_LocalPosition: {x: 2.852234e-10, y: 0.15600127, z: 0.0000000015600697}
  m_LocalScale: {x: 1, y: 1, z: 1}
  m_Children:
  - {fileID: 444614}
  m_Father: {fileID: 487568}
  m_RootOrder: 0
  m_LocalEulerAnglesHint: {x: 0, y: 0, z: 0}
--- !u!4 &458086
Transform:
  m_ObjectHideFlags: 1
  m_PrefabParentObject: {fileID: 0}
  m_PrefabInternal: {fileID: 100100000}
  m_GameObject: {fileID: 154170}
  m_LocalRotation: {x: -0.7071068, y: 0.000000004486336, z: 0.0000000030148992, w: 0.7071067}
  m_LocalPosition: {x: -0.000000017695125, y: -0.000000092200935, z: -0.000000009313227}
  m_LocalScale: {x: 99.99998, y: 99.99999, z: 99.99999}
  m_Children: []
  m_Father: {fileID: 454412}
  m_RootOrder: 1
  m_LocalEulerAnglesHint: {x: 0, y: 0, z: 0}
--- !u!4 &459740
Transform:
  m_ObjectHideFlags: 1
  m_PrefabParentObject: {fileID: 0}
  m_PrefabInternal: {fileID: 100100000}
  m_GameObject: {fileID: 128924}
  m_LocalRotation: {x: 0, y: 0, z: 0, w: 1}
  m_LocalPosition: {x: 0.0011486416, y: 0.027415276, z: -0.0072024134}
  m_LocalScale: {x: 1, y: 1, z: 1}
  m_Children: []
  m_Father: {fileID: 483044}
  m_RootOrder: 0
  m_LocalEulerAnglesHint: {x: 0, y: 0, z: 0}
--- !u!4 &462576
Transform:
  m_ObjectHideFlags: 1
  m_PrefabParentObject: {fileID: 0}
  m_PrefabInternal: {fileID: 100100000}
  m_GameObject: {fileID: 190240}
  m_LocalRotation: {x: 0, y: 0, z: 2.7593034e-28, w: 1}
  m_LocalPosition: {x: -0, y: 0.04212387, z: 0.017159529}
  m_LocalScale: {x: 1, y: 1, z: 1}
  m_Children:
  - {fileID: 469074}
  m_Father: {fileID: 497658}
  m_RootOrder: 0
  m_LocalEulerAnglesHint: {x: 0, y: 0, z: 0}
--- !u!4 &464224
Transform:
  m_ObjectHideFlags: 1
  m_PrefabParentObject: {fileID: 0}
  m_PrefabInternal: {fileID: 100100000}
  m_GameObject: {fileID: 195258}
  m_LocalRotation: {x: -0.14271843, y: -0.002395716, z: 0.016612262, w: 0.98962104}
  m_LocalPosition: {x: -2.7400054e-11, y: 0.1297673, z: 5.84846e-10}
  m_LocalScale: {x: 1, y: 1, z: 1}
  m_Children:
  - {fileID: 464544}
  m_Father: {fileID: 406392}
  m_RootOrder: 0
  m_LocalEulerAnglesHint: {x: 0, y: 0, z: 0}
--- !u!4 &464544
Transform:
  m_ObjectHideFlags: 1
  m_PrefabParentObject: {fileID: 0}
  m_PrefabInternal: {fileID: 100100000}
  m_GameObject: {fileID: 131308}
  m_LocalRotation: {x: 0.039033003, y: -0.0005530927, z: -0.00090611284, w: 0.99923736}
  m_LocalPosition: {x: 6.0039157e-10, y: 0.2887408, z: 3.2335493e-10}
  m_LocalScale: {x: 1, y: 1, z: 1}
  m_Children:
  - {fileID: 412204}
  m_Father: {fileID: 464224}
  m_RootOrder: 0
  m_LocalEulerAnglesHint: {x: 0, y: 0, z: 0}
--- !u!4 &469074
Transform:
  m_ObjectHideFlags: 1
  m_PrefabParentObject: {fileID: 0}
  m_PrefabInternal: {fileID: 100100000}
  m_GameObject: {fileID: 144330}
  m_LocalRotation: {x: 0, y: 0, z: 0, w: 1}
  m_LocalPosition: {x: -0, y: 0.2192195, z: 0.08930099}
  m_LocalScale: {x: 1, y: 1, z: 1}
  m_Children: []
  m_Father: {fileID: 462576}
  m_RootOrder: 0
  m_LocalEulerAnglesHint: {x: 0, y: 0, z: 0}
--- !u!4 &474802
Transform:
  m_ObjectHideFlags: 1
  m_PrefabParentObject: {fileID: 0}
  m_PrefabInternal: {fileID: 100100000}
  m_GameObject: {fileID: 141370}
  m_LocalRotation: {x: -0.025362488, y: -0.47903228, z: -0.87728316, w: -0.016096173}
  m_LocalPosition: {x: 0.00036043738, y: 0.049401514, z: -0.07688891}
  m_LocalScale: {x: 0.9999999, y: 0.99999976, z: 1}
  m_Children: []
  m_Father: {fileID: 498402}
  m_RootOrder: 1
  m_LocalEulerAnglesHint: {x: 0, y: 0, z: 0}
--- !u!4 &476542
Transform:
  m_ObjectHideFlags: 1
  m_PrefabParentObject: {fileID: 0}
  m_PrefabInternal: {fileID: 100100000}
  m_GameObject: {fileID: 108208}
  m_LocalRotation: {x: -0.14250651, y: 0.0035210438, z: -0.024447946, w: 0.9894856}
  m_LocalPosition: {x: -4.5505016e-11, y: 0.1297673, z: 5.837165e-10}
  m_LocalScale: {x: 1, y: 1, z: 1}
  m_Children:
  - {fileID: 452888}
  m_Father: {fileID: 414282}
  m_RootOrder: 0
  m_LocalEulerAnglesHint: {x: 0, y: 0, z: 0}
--- !u!4 &479654
Transform:
  m_ObjectHideFlags: 1
  m_PrefabParentObject: {fileID: 0}
  m_PrefabInternal: {fileID: 100100000}
  m_GameObject: {fileID: 121326}
  m_LocalRotation: {x: 0, y: -0.70710695, z: 0, w: 0.70710665}
  m_LocalPosition: {x: 6.4099736, y: 0, z: 55.300003}
  m_LocalScale: {x: 1, y: 1, z: 1}
  m_Children:
  - {fileID: 454448}
  m_Father: {fileID: 454412}
  m_RootOrder: 2
  m_LocalEulerAnglesHint: {x: 0, y: 0, z: 0}
--- !u!4 &482942
Transform:
  m_ObjectHideFlags: 1
  m_PrefabParentObject: {fileID: 0}
  m_PrefabInternal: {fileID: 100100000}
  m_GameObject: {fileID: 162094}
  m_LocalRotation: {x: -0.000000009312198, y: 9.0580587e-13, z: 1.1837035e-11, w: 1}
  m_LocalPosition: {x: -0, y: 0.12735091, z: -1.793603e-11}
  m_LocalScale: {x: 1, y: 1, z: 1}
  m_Children:
  - {fileID: 414282}
  - {fileID: 497658}
  - {fileID: 406392}
  m_Father: {fileID: 454720}
  m_RootOrder: 0
  m_LocalEulerAnglesHint: {x: 0, y: 0, z: 0}
--- !u!4 &483044
Transform:
  m_ObjectHideFlags: 1
  m_PrefabParentObject: {fileID: 0}
  m_PrefabInternal: {fileID: 100100000}
  m_GameObject: {fileID: 101340}
  m_LocalRotation: {x: 0.116371006, y: -0.006259956, z: -0.00526331, w: 0.99317217}
  m_LocalPosition: {x: 0.0012472769, y: 0.02916866, z: -0.00034675846}
  m_LocalScale: {x: 1, y: 1, z: 1}
  m_Children:
  - {fileID: 459740}
  m_Father: {fileID: 498322}
  m_RootOrder: 0
  m_LocalEulerAnglesHint: {x: 0, y: 0, z: 0}
--- !u!4 &487568
Transform:
  m_ObjectHideFlags: 1
  m_PrefabParentObject: {fileID: 0}
  m_PrefabInternal: {fileID: 100100000}
  m_GameObject: {fileID: 149264}
  m_LocalRotation: {x: 0.5055165, y: 0.025791276, z: -0.020149022, w: 0.86219597}
  m_LocalPosition: {x: 1.16706644e-11, y: 0.44479036, z: -1.6296877e-11}
  m_LocalScale: {x: 1, y: 1, z: 1}
  m_Children:
  - {fileID: 455370}
  - {fileID: 447724}
  m_Father: {fileID: 443824}
  m_RootOrder: 0
  m_LocalEulerAnglesHint: {x: 0, y: 0, z: 0}
--- !u!4 &489710
Transform:
  m_ObjectHideFlags: 1
  m_PrefabParentObject: {fileID: 0}
  m_PrefabInternal: {fileID: 100100000}
  m_GameObject: {fileID: 151222}
  m_LocalRotation: {x: 0.01155079, y: 0.0003043122, z: 0.026337173, w: 0.99958634}
  m_LocalPosition: {x: 1.3066113e-10, y: 0.102914095, z: 4.7655248e-11}
  m_LocalScale: {x: 1, y: 1, z: 1}
  m_Children:
  - {fileID: 498322}
  m_Father: {fileID: 409884}
  m_RootOrder: 0
  m_LocalEulerAnglesHint: {x: 0, y: 0, z: 0}
--- !u!4 &493288
Transform:
  m_ObjectHideFlags: 1
  m_PrefabParentObject: {fileID: 0}
  m_PrefabInternal: {fileID: 100100000}
  m_GameObject: {fileID: 119248}
  m_LocalRotation: {x: 0.00036030787, y: 0.018569753, z: 0.9998142, w: -0.0051595746}
  m_LocalPosition: {x: 0.109073006, y: -0.053034514, z: 0.019643249}
  m_LocalScale: {x: 1, y: 1, z: 1}
  m_Children:
  - {fileID: 400436}
  m_Father: {fileID: 428816}
  m_RootOrder: 1
  m_LocalEulerAnglesHint: {x: 0, y: 0, z: 0}
--- !u!4 &497658
Transform:
  m_ObjectHideFlags: 1
  m_PrefabParentObject: {fileID: 0}
  m_PrefabInternal: {fileID: 100100000}
  m_GameObject: {fileID: 168330}
  m_LocalRotation: {x: 0.0074241078, y: 4.2567862e-19, z: 6.2914315e-18, w: 0.99997246}
  m_LocalPosition: {x: -0, y: 0.14326973, z: 1.3594112e-10}
  m_LocalScale: {x: 1, y: 1, z: 1}
  m_Children:
  - {fileID: 462576}
  m_Father: {fileID: 482942}
  m_RootOrder: 1
  m_LocalEulerAnglesHint: {x: 0, y: 0, z: 0}
--- !u!4 &498322
Transform:
  m_ObjectHideFlags: 1
  m_PrefabParentObject: {fileID: 0}
  m_PrefabInternal: {fileID: 100100000}
  m_GameObject: {fileID: 145914}
  m_LocalRotation: {x: 0.0065425327, y: -0.00027744102, z: 0.00018688994, w: 0.99997854}
  m_LocalPosition: {x: -1.4600375e-11, y: 0.020354053, z: -1.01675536e-10}
  m_LocalScale: {x: 1, y: 1, z: 1}
  m_Children:
  - {fileID: 483044}
  m_Father: {fileID: 489710}
  m_RootOrder: 0
  m_LocalEulerAnglesHint: {x: 0, y: 0, z: 0}
--- !u!4 &498402
Transform:
  m_ObjectHideFlags: 1
  m_PrefabParentObject: {fileID: 0}
  m_PrefabInternal: {fileID: 100100000}
  m_GameObject: {fileID: 106746}
  m_LocalRotation: {x: 0.5249098, y: -0.023100918, z: 0.019929148, w: 0.8506109}
  m_LocalPosition: {x: 6.401322e-11, y: 0.44603264, z: 4.4789195e-10}
  m_LocalScale: {x: 1, y: 1, z: 1}
  m_Children:
  - {fileID: 434184}
  - {fileID: 474802}
  m_Father: {fileID: 400436}
  m_RootOrder: 0
  m_LocalEulerAnglesHint: {x: 0, y: 0, z: 0}
--- !u!4 &498986
Transform:
  m_ObjectHideFlags: 1
  m_PrefabParentObject: {fileID: 0}
  m_PrefabInternal: {fileID: 100100000}
  m_GameObject: {fileID: 118506}
  m_LocalRotation: {x: -0.0010777344, y: -0.000017664484, z: 0.016422523, w: 0.9998646}
  m_LocalPosition: {x: -1.16282074e-10, y: 0.13494258, z: 5.925358e-12}
  m_LocalScale: {x: 1, y: 1, z: 1}
  m_Children:
  - {fileID: 447794}
  m_Father: {fileID: 412204}
  m_RootOrder: 0
  m_LocalEulerAnglesHint: {x: 0, y: 0, z: 0}
--- !u!54 &5402636
Rigidbody:
  m_ObjectHideFlags: 1
  m_PrefabParentObject: {fileID: 0}
  m_PrefabInternal: {fileID: 100100000}
  m_GameObject: {fileID: 145296}
  serializedVersion: 2
  m_Mass: 10
  m_Drag: 0
  m_AngularDrag: 0.05
  m_UseGravity: 1
  m_IsKinematic: 0
  m_Interpolate: 0
  m_Constraints: 0
  m_CollisionDetection: 0
--- !u!54 &5421896
Rigidbody:
  m_ObjectHideFlags: 1
  m_PrefabParentObject: {fileID: 0}
  m_PrefabInternal: {fileID: 100100000}
  m_GameObject: {fileID: 190240}
  serializedVersion: 2
  m_Mass: 10
  m_Drag: 0
  m_AngularDrag: 0.05
  m_UseGravity: 1
  m_IsKinematic: 0
  m_Interpolate: 0
  m_Constraints: 0
  m_CollisionDetection: 0
--- !u!54 &5427426
Rigidbody:
  m_ObjectHideFlags: 1
  m_PrefabParentObject: {fileID: 0}
  m_PrefabInternal: {fileID: 100100000}
  m_GameObject: {fileID: 108208}
  serializedVersion: 2
  m_Mass: 10
  m_Drag: 0
  m_AngularDrag: 0.05
  m_UseGravity: 1
  m_IsKinematic: 0
  m_Interpolate: 0
  m_Constraints: 0
  m_CollisionDetection: 0
--- !u!54 &5428268
Rigidbody:
  m_ObjectHideFlags: 1
  m_PrefabParentObject: {fileID: 0}
  m_PrefabInternal: {fileID: 100100000}
  m_GameObject: {fileID: 195258}
  serializedVersion: 2
  m_Mass: 10
  m_Drag: 0
  m_AngularDrag: 0.05
  m_UseGravity: 1
  m_IsKinematic: 0
  m_Interpolate: 0
  m_Constraints: 0
  m_CollisionDetection: 0
--- !u!54 &5429300
Rigidbody:
  m_ObjectHideFlags: 1
  m_PrefabParentObject: {fileID: 0}
  m_PrefabInternal: {fileID: 100100000}
  m_GameObject: {fileID: 168322}
  serializedVersion: 2
  m_Mass: 10
  m_Drag: 0
  m_AngularDrag: 0.05
  m_UseGravity: 1
  m_IsKinematic: 0
  m_Interpolate: 0
  m_Constraints: 0
  m_CollisionDetection: 0
--- !u!54 &5436624
Rigidbody:
  m_ObjectHideFlags: 1
  m_PrefabParentObject: {fileID: 0}
  m_PrefabInternal: {fileID: 100100000}
  m_GameObject: {fileID: 152722}
  serializedVersion: 2
  m_Mass: 10
  m_Drag: 0
  m_AngularDrag: 0.05
  m_UseGravity: 1
  m_IsKinematic: 0
  m_Interpolate: 0
  m_Constraints: 0
  m_CollisionDetection: 0
--- !u!54 &5438580
Rigidbody:
  m_ObjectHideFlags: 1
  m_PrefabParentObject: {fileID: 0}
  m_PrefabInternal: {fileID: 100100000}
  m_GameObject: {fileID: 169536}
  serializedVersion: 2
  m_Mass: 10
  m_Drag: 0
  m_AngularDrag: 0.05
  m_UseGravity: 1
  m_IsKinematic: 0
  m_Interpolate: 0
  m_Constraints: 0
  m_CollisionDetection: 0
--- !u!54 &5445214
Rigidbody:
  m_ObjectHideFlags: 1
  m_PrefabParentObject: {fileID: 0}
  m_PrefabInternal: {fileID: 100100000}
  m_GameObject: {fileID: 145196}
  serializedVersion: 2
  m_Mass: 10
  m_Drag: 0
  m_AngularDrag: 0.05
  m_UseGravity: 1
  m_IsKinematic: 0
  m_Interpolate: 0
  m_Constraints: 0
  m_CollisionDetection: 0
--- !u!54 &5449866
Rigidbody:
  m_ObjectHideFlags: 1
  m_PrefabParentObject: {fileID: 0}
  m_PrefabInternal: {fileID: 100100000}
  m_GameObject: {fileID: 184648}
  serializedVersion: 2
  m_Mass: 10
  m_Drag: 0
  m_AngularDrag: 0.05
  m_UseGravity: 1
  m_IsKinematic: 0
  m_Interpolate: 0
  m_Constraints: 0
  m_CollisionDetection: 0
--- !u!54 &5464954
Rigidbody:
  m_ObjectHideFlags: 1
  m_PrefabParentObject: {fileID: 0}
  m_PrefabInternal: {fileID: 100100000}
  m_GameObject: {fileID: 163420}
  serializedVersion: 2
  m_Mass: 50
  m_Drag: 0
  m_AngularDrag: 0.05
  m_UseGravity: 1
  m_IsKinematic: 0
  m_Interpolate: 0
  m_Constraints: 112
  m_CollisionDetection: 1
--- !u!54 &5473968
Rigidbody:
  m_ObjectHideFlags: 1
  m_PrefabParentObject: {fileID: 0}
  m_PrefabInternal: {fileID: 100100000}
  m_GameObject: {fileID: 119248}
  serializedVersion: 2
  m_Mass: 10
  m_Drag: 0
  m_AngularDrag: 0.05
  m_UseGravity: 1
  m_IsKinematic: 0
  m_Interpolate: 0
  m_Constraints: 0
  m_CollisionDetection: 0
--- !u!54 &5484096
Rigidbody:
  m_ObjectHideFlags: 1
  m_PrefabParentObject: {fileID: 0}
  m_PrefabInternal: {fileID: 100100000}
  m_GameObject: {fileID: 131308}
  serializedVersion: 2
  m_Mass: 10
  m_Drag: 0
  m_AngularDrag: 0.05
  m_UseGravity: 1
  m_IsKinematic: 0
  m_Interpolate: 0
  m_Constraints: 0
  m_CollisionDetection: 0
--- !u!65 &6503908
BoxCollider:
  m_ObjectHideFlags: 1
  m_PrefabParentObject: {fileID: 0}
  m_PrefabInternal: {fileID: 100100000}
  m_GameObject: {fileID: 168322}
  m_Material: {fileID: 0}
  m_IsTrigger: 0
  m_Enabled: 1
  serializedVersion: 2
  m_Size: {x: 0.37783003, y: 0.22220625, z: 0.24125239}
  m_Center: {x: 0.000000461936, y: 0.1111032, z: 0.0083683655}
--- !u!65 &6523922
BoxCollider:
  m_ObjectHideFlags: 1
  m_PrefabParentObject: {fileID: 0}
  m_PrefabInternal: {fileID: 100100000}
  m_GameObject: {fileID: 145296}
  m_Material: {fileID: 0}
  m_IsTrigger: 0
  m_Enabled: 1
  serializedVersion: 2
  m_Size: {x: 0.37782997, y: 0.25995708, z: 0.24112906}
  m_Center: {x: 0.00026659667, y: 0.07694402, z: 0.0055788234}
--- !u!82 &8242088
AudioSource:
  m_ObjectHideFlags: 1
  m_PrefabParentObject: {fileID: 0}
  m_PrefabInternal: {fileID: 100100000}
  m_GameObject: {fileID: 154662}
  m_Enabled: 1
  serializedVersion: 4
  OutputAudioMixerGroup: {fileID: 0}
  m_audioClip: {fileID: 0}
  m_PlayOnAwake: 0
  m_Volume: 1
  m_Pitch: 1
  Loop: 0
  Mute: 0
  Spatialize: 0
  SpatializePostEffects: 0
  Priority: 128
  DopplerLevel: 1
  MinDistance: 1
  MaxDistance: 500
  Pan2D: 0
  rolloffMode: 0
  BypassEffects: 0
  BypassListenerEffects: 0
  BypassReverbZones: 0
  rolloffCustomCurve:
    serializedVersion: 2
    m_Curve:
    - serializedVersion: 2
      time: 0
      value: 1
      inSlope: 0
      outSlope: 0
      tangentMode: 0
    - serializedVersion: 2
      time: 1
      value: 0
      inSlope: 0
      outSlope: 0
      tangentMode: 0
    m_PreInfinity: 2
    m_PostInfinity: 2
    m_RotationOrder: 4
  panLevelCustomCurve:
    serializedVersion: 2
    m_Curve:
    - serializedVersion: 2
      time: 0
      value: 0
      inSlope: 0
      outSlope: 0
      tangentMode: 0
    m_PreInfinity: 2
    m_PostInfinity: 2
    m_RotationOrder: 4
  spreadCustomCurve:
    serializedVersion: 2
    m_Curve:
    - serializedVersion: 2
      time: 0
      value: 0
      inSlope: 0
      outSlope: 0
      tangentMode: 0
    m_PreInfinity: 2
    m_PostInfinity: 2
    m_RotationOrder: 4
  reverbZoneMixCustomCurve:
    serializedVersion: 2
    m_Curve:
    - serializedVersion: 2
      time: 0
      value: 1
      inSlope: 0
      outSlope: 0
      tangentMode: 0
    m_PreInfinity: 2
    m_PostInfinity: 2
    m_RotationOrder: 4
--- !u!95 &9536312
Animator:
  serializedVersion: 3
  m_ObjectHideFlags: 1
  m_PrefabParentObject: {fileID: 0}
  m_PrefabInternal: {fileID: 100100000}
  m_GameObject: {fileID: 163420}
  m_Enabled: 1
  m_Avatar: {fileID: 9000000, guid: 66a74de1d4a081e49b0a790722fd06ab, type: 3}
  m_Controller: {fileID: 9100000, guid: b4c495863f6619448863214ae9e6aede, type: 2}
  m_CullingMode: 1
  m_UpdateMode: 0
  m_ApplyRootMotion: 1
  m_LinearVelocityBlending: 0
  m_WarningMessage: 
  m_HasTransformHierarchy: 1
  m_AllowConstantClipSamplingOptimization: 1
--- !u!114 &11402648
MonoBehaviour:
  m_ObjectHideFlags: 1
  m_PrefabParentObject: {fileID: 0}
  m_PrefabInternal: {fileID: 100100000}
  m_GameObject: {fileID: 128070}
  m_Enabled: 1
  m_EditorHideFlags: 0
  m_Script: {fileID: 11500000, guid: 1b04f4ac1b776ff48b5f78a97b57f776, type: 3}
  m_Name: 
  m_EditorClassIdentifier: 
--- !u!114 &11405790
MonoBehaviour:
  m_ObjectHideFlags: 1
  m_PrefabParentObject: {fileID: 0}
  m_PrefabInternal: {fileID: 100100000}
  m_GameObject: {fileID: 163420}
  m_Enabled: 1
  m_EditorHideFlags: 0
  m_Script: {fileID: 11500000, guid: 73fbf3aa05f6be24780438449f505aa3, type: 3}
  m_Name: 
  m_EditorClassIdentifier: 
  openCloseEvents: 0
  openCloseWindow: 0
  selectedToolbar: 0
  _isDead: 0
  _currentHealth: 0
  maxHealth: 100
  healthRecovery: 0
  healthRecoveryDelay: 0
  currentHealthRecoveryDelay: 0
  onReceiveDamage:
    m_PersistentCalls:
      m_Calls: []
    m_TypeName: Invector.vHealthController+OnReceiveDamage, Assembly-CSharp, Version=0.0.0.0,
      Culture=neutral, PublicKeyToken=null
  onDead:
    m_PersistentCalls:
      m_Calls: []
    m_TypeName: Invector.vHealthController+OnDead, Assembly-CSharp, Version=0.0.0.0,
      Culture=neutral, PublicKeyToken=null
  deathBy: 0
  removeComponentsAfterDie: 0
  onActiveRagdoll:
    m_PersistentCalls:
      m_Calls: []
    m_TypeName: Invector.vCharacterController.OnActiveRagdoll, Assembly-CSharp, Version=0.0.0.0,
      Culture=neutral, PublicKeyToken=null
  onActionEnter:
    m_PersistentCalls:
      m_Calls: []
    m_TypeName: Invector.vCharacterController.OnActionHandle, Assembly-CSharp, Version=0.0.0.0,
      Culture=neutral, PublicKeyToken=null
  onActionStay:
    m_PersistentCalls:
      m_Calls: []
    m_TypeName: Invector.vCharacterController.OnActionHandle, Assembly-CSharp, Version=0.0.0.0,
      Culture=neutral, PublicKeyToken=null
  onActionExit:
    m_PersistentCalls:
      m_Calls: []
    m_TypeName: Invector.vCharacterController.OnActionHandle, Assembly-CSharp, Version=0.0.0.0,
      Culture=neutral, PublicKeyToken=null
  debugWindow: 0
  maxStamina: 200
  staminaRecovery: 1.2
  currentStamina: 0
  currentStaminaRecoveryDelay: 0
  sprintStamina: 30
  jumpStamina: 30
  rollStamina: 25
  OnStaminaEnd:
    m_PersistentCalls:
      m_Calls: []
    m_TypeName: UnityEngine.Events.UnityEvent, UnityEngine.CoreModule, Version=0.0.0.0,
      Culture=neutral, PublicKeyToken=null
  groundLayer:
    serializedVersion: 2
    m_Bits: 1
  autoCrouchLayer:
    serializedVersion: 2
    m_Bits: 1
  headDetect: 0.95
  stopMoveLayer:
    serializedVersion: 2
    m_Bits: 4096
  stopMoveHeight: 0.65
  stopMoveDistance: 0.5
  useRootMotion: 1
  locomotionType: 0
  freeSpeed:
    rotationSpeed: 10
    walkByDefault: 0
    walkSpeed: 2
    runningSpeed: 3
    sprintSpeed: 4
    crouchSpeed: 2
  strafeSpeed:
    rotationSpeed: 10
    walkByDefault: 0
    walkSpeed: 2
    runningSpeed: 3
    sprintSpeed: 4
    crouchSpeed: 2
  rotateByWorld: 0
  turnOnSpotAnim: 0
  rollControl: 0
  randomIdleTime: 0
  jumpAirControl: 1
  jumpTimer: 0.3
  jumpCounter: 0
  jumpForward: 3
  jumpHeight: 4
  groundCheckMethod: 1
  groundMinDistance: 0.2
  groundMaxDistance: 0.5
  stepOffsetEnd: 0.45
  stepOffsetStart: 0.05
  stepSmooth: 4
  slopeLimit: 45
  slideVelocity: 7
  extraGravity: -10
  ragdollVel: -16
  isGrounded: 0
  isCrouching: 0
  inCrouchArea: 0
  isSprinting: 0
  isSliding: 0
  stopMove: 0
  autoCrouch: 0
  isRolling: 0
  isJumping: 0
  isGettingUp: 0
  inTurn: 0
  quickStop: 0
  landHigh: 0
  customAction: 0
  targetDirection: {x: 0, y: 0, z: 0}
  targetRotation: {x: 0, y: 0, z: 0, w: 0}
  strafeMagnitude: 0
  freeRotation: {x: 0, y: 0, z: 0, w: 0}
  keepDirection: 0
  oldInput: {x: 0, y: 0}
  _rigidbody: {fileID: 0}
  frictionPhysics: {fileID: 0}
  maxFrictionPhysics: {fileID: 0}
  slippyPhysics: {fileID: 0}
  _capsuleCollider: {fileID: 0}
  lockMovement: 0
  lockInStrafe: 0
  lockSpeed: 0
  lockRotation: 0
  forceRootMotion: 0
  colliderRadius: 0
  colliderHeight: 0
  colliderCenter: {x: 0, y: 0, z: 0}
  input: {x: 0, y: 0}
  speed: 0
  direction: 0
  verticalVelocity: 0
  velocity: 0
  jumpMultiplier: 1
  matchTarget: {fileID: 0}
  lookAtWeight: 0
--- !u!114 &11410598
MonoBehaviour:
  m_ObjectHideFlags: 1
  m_PrefabParentObject: {fileID: 0}
  m_PrefabInternal: {fileID: 100100000}
  m_GameObject: {fileID: 145196}
  m_Enabled: 1
  m_EditorHideFlags: 0
  m_Script: {fileID: 11500000, guid: a7a04eca2b705bf47b75d6e9ef2ec850, type: 3}
  m_Name: 
  m_EditorClassIdentifier: 
  ragdoll: {fileID: 0}
  overrideReactionID: 0
  reactionID: 0
  damageMultiplier: 1
--- !u!114 &11411570
MonoBehaviour:
  m_ObjectHideFlags: 1
  m_PrefabParentObject: {fileID: 0}
  m_PrefabInternal: {fileID: 100100000}
  m_GameObject: {fileID: 163420}
  m_Enabled: 1
  m_EditorHideFlags: 0
  m_Script: {fileID: 11500000, guid: 5deb9ff5611cb9d4596d397ac57ee8c7, type: 3}
  m_Name: 
  m_EditorClassIdentifier: 
  openCloseEvents: 0
  openCloseWindow: 0
  selectedToolbar: 0
  lockInput: 0
  unlockCursorOnStart: 0
  showCursorOnStart: 0
  horizontalInput:
    useInput: 1
    isAxisInUse: 0
    keyboard: Horizontal
    keyboardAxis: 0
    joystick: LeftAnalogHorizontal
    joystickAxis: 0
    mobile: Horizontal
    mobileAxis: 0
    joystickAxisInvert: 0
    keyboardAxisInvert: 0
    mobileAxisInvert: 0
  verticallInput:
    useInput: 1
    isAxisInUse: 0
    keyboard: Vertical
    keyboardAxis: 0
    joystick: LeftAnalogVertical
    joystickAxis: 0
    mobile: Vertical
    mobileAxis: 0
    joystickAxisInvert: 0
    keyboardAxisInvert: 0
    mobileAxisInvert: 0
  jumpInput:
    useInput: 1
    isAxisInUse: 0
    keyboard: Space
    keyboardAxis: 0
    joystick: X
    joystickAxis: 0
    mobile: X
    mobileAxis: 0
    joystickAxisInvert: 0
    keyboardAxisInvert: 0
    mobileAxisInvert: 0
  rollInput:
    useInput: 1
    isAxisInUse: 0
    keyboard: Q
    keyboardAxis: 0
    joystick: B
    joystickAxis: 0
    mobile: B
    mobileAxis: 0
    joystickAxisInvert: 0
    keyboardAxisInvert: 0
    mobileAxisInvert: 0
  strafeInput:
    useInput: 1
    isAxisInUse: 0
    keyboard: Tab
    keyboardAxis: 0
    joystick: RightStickClick
    joystickAxis: 0
    mobile: RightStickClick
    mobileAxis: 0
    joystickAxisInvert: 0
    keyboardAxisInvert: 0
    mobileAxisInvert: 0
  sprintInput:
    useInput: 1
    isAxisInUse: 0
    keyboard: LeftShift
    keyboardAxis: 0
    joystick: LeftStickClick
    joystickAxis: 0
    mobile: LeftStickClick
    mobileAxis: 0
    joystickAxisInvert: 0
    keyboardAxisInvert: 0
    mobileAxisInvert: 0
  crouchInput:
    useInput: 1
    isAxisInUse: 0
    keyboard: C
    keyboardAxis: 0
    joystick: Y
    joystickAxis: 0
    mobile: Y
    mobileAxis: 0
    joystickAxisInvert: 0
    keyboardAxisInvert: 0
    mobileAxisInvert: 0
  lockCameraInput: 0
  ignoreCameraRotation: 0
  rotateToCameraWhileStrafe: 1
  rotateCameraXInput:
    useInput: 1
    isAxisInUse: 0
    keyboard: Mouse X
    keyboardAxis: 0
    joystick: RightAnalogHorizontal
    joystickAxis: 0
    mobile: Mouse X
    mobileAxis: 0
    joystickAxisInvert: 0
    keyboardAxisInvert: 0
    mobileAxisInvert: 0
  rotateCameraYInput:
    useInput: 1
    isAxisInUse: 0
    keyboard: Mouse Y
    keyboardAxis: 0
    joystick: RightAnalogVertical
    joystickAxis: 0
    mobile: Mouse Y
    mobileAxis: 0
    joystickAxisInvert: 0
    keyboardAxisInvert: 0
    mobileAxisInvert: 0
  cameraZoomInput:
    useInput: 1
    isAxisInUse: 0
    keyboard: Mouse ScrollWheel
    keyboardAxis: 0
    joystick: 
    joystickAxis: 0
    mobile: 
    mobileAxis: 0
    joystickAxisInvert: 0
    keyboardAxisInvert: 0
    mobileAxisInvert: 0
  tpCamera: {fileID: 0}
  customCameraState: 
  customlookAtPoint: 
  changeCameraState: 0
  smoothCameraState: 0
  keepDirection: 0
  OnLateUpdate:
    m_PersistentCalls:
      m_Calls:
      - m_Target: {fileID: 11458734}
        m_MethodName: UpdateHeadTrack
        m_Mode: 0
        m_Arguments:
          m_ObjectArgument: {fileID: 0}
          m_ObjectArgumentAssemblyTypeName: 
          m_IntArgument: 0
          m_FloatArgument: 0
          m_StringArgument: 
          m_BoolArgument: 0
        m_CallState: 2
    m_TypeName: UnityEngine.Events.UnityEvent, UnityEngine.CoreModule, Version=0.0.0.0,
      Culture=neutral, PublicKeyToken=null
  cc: {fileID: 0}
  hud: {fileID: 0}
--- !u!114 &11411596
MonoBehaviour:
  m_ObjectHideFlags: 1
  m_PrefabParentObject: {fileID: 0}
  m_PrefabInternal: {fileID: 100100000}
  m_GameObject: {fileID: 108208}
  m_Enabled: 1
  m_EditorHideFlags: 0
  m_Script: {fileID: 11500000, guid: a7a04eca2b705bf47b75d6e9ef2ec850, type: 3}
  m_Name: 
  m_EditorClassIdentifier: 
  ragdoll: {fileID: 0}
  overrideReactionID: 0
  reactionID: 0
  damageMultiplier: 1
--- !u!114 &11417900
MonoBehaviour:
  m_ObjectHideFlags: 1
  m_PrefabParentObject: {fileID: 0}
  m_PrefabInternal: {fileID: 100100000}
  m_GameObject: {fileID: 141370}
  m_Enabled: 1
  m_EditorHideFlags: 0
  m_Script: {fileID: 11500000, guid: 1b04f4ac1b776ff48b5f78a97b57f776, type: 3}
  m_Name: 
  m_EditorClassIdentifier: 
--- !u!114 &11418770
MonoBehaviour:
  m_ObjectHideFlags: 1
  m_PrefabParentObject: {fileID: 0}
  m_PrefabInternal: {fileID: 100100000}
  m_GameObject: {fileID: 184648}
  m_Enabled: 1
  m_EditorHideFlags: 0
  m_Script: {fileID: 11500000, guid: a7a04eca2b705bf47b75d6e9ef2ec850, type: 3}
  m_Name: 
  m_EditorClassIdentifier: 
  ragdoll: {fileID: 0}
  overrideReactionID: 0
  reactionID: 0
  damageMultiplier: 1
--- !u!114 &11424106
MonoBehaviour:
  m_ObjectHideFlags: 1
  m_PrefabParentObject: {fileID: 0}
  m_PrefabInternal: {fileID: 100100000}
  m_GameObject: {fileID: 119248}
  m_Enabled: 1
  m_EditorHideFlags: 0
  m_Script: {fileID: 11500000, guid: a7a04eca2b705bf47b75d6e9ef2ec850, type: 3}
  m_Name: 
  m_EditorClassIdentifier: 
  ragdoll: {fileID: 0}
  overrideReactionID: 0
  reactionID: 0
  damageMultiplier: 1
--- !u!114 &11424224
MonoBehaviour:
  m_ObjectHideFlags: 1
  m_PrefabParentObject: {fileID: 0}
  m_PrefabInternal: {fileID: 100100000}
  m_GameObject: {fileID: 163420}
  m_Enabled: 1
  m_EditorHideFlags: 0
  m_Script: {fileID: 11500000, guid: 19ce6a4d1f67f494f8e871355031f21c, type: 3}
  m_Name: 
  m_EditorClassIdentifier: 
  defaultSurface: {fileID: 11400000, guid: 710c74baecce50746bd56b9711c851e7, type: 2}
  customSurfaces: []
  animationType: 0
  debugTextureName: 0
  leftFootTrigger: {fileID: 11402648}
  rightFootTrigger: {fileID: 11417900}
  currentStep: {fileID: 0}
  footStepTriggers: []
--- !u!114 &11428868
MonoBehaviour:
  m_ObjectHideFlags: 1
  m_PrefabParentObject: {fileID: 0}
  m_PrefabInternal: {fileID: 100100000}
  m_GameObject: {fileID: 145296}
  m_Enabled: 1
  m_EditorHideFlags: 0
  m_Script: {fileID: 11500000, guid: a7a04eca2b705bf47b75d6e9ef2ec850, type: 3}
  m_Name: 
  m_EditorClassIdentifier: 
  ragdoll: {fileID: 0}
  overrideReactionID: 0
  reactionID: 0
  damageMultiplier: 1
--- !u!114 &11429552
MonoBehaviour:
  m_ObjectHideFlags: 1
  m_PrefabParentObject: {fileID: 0}
  m_PrefabInternal: {fileID: 100100000}
  m_GameObject: {fileID: 168322}
  m_Enabled: 1
  m_EditorHideFlags: 0
  m_Script: {fileID: 11500000, guid: a7a04eca2b705bf47b75d6e9ef2ec850, type: 3}
  m_Name: 
  m_EditorClassIdentifier: 
  ragdoll: {fileID: 0}
  overrideReactionID: 0
  reactionID: 0
  damageMultiplier: 1
--- !u!114 &11433176
MonoBehaviour:
  m_ObjectHideFlags: 1
  m_PrefabParentObject: {fileID: 0}
  m_PrefabInternal: {fileID: 100100000}
  m_GameObject: {fileID: 195258}
  m_Enabled: 1
  m_EditorHideFlags: 0
  m_Script: {fileID: 11500000, guid: a7a04eca2b705bf47b75d6e9ef2ec850, type: 3}
  m_Name: 
  m_EditorClassIdentifier: 
  ragdoll: {fileID: 0}
  overrideReactionID: 0
  reactionID: 0
  damageMultiplier: 1
--- !u!114 &11436896
MonoBehaviour:
  m_ObjectHideFlags: 1
  m_PrefabParentObject: {fileID: 0}
  m_PrefabInternal: {fileID: 100100000}
  m_GameObject: {fileID: 190240}
  m_Enabled: 1
  m_EditorHideFlags: 0
  m_Script: {fileID: 11500000, guid: a7a04eca2b705bf47b75d6e9ef2ec850, type: 3}
  m_Name: 
  m_EditorClassIdentifier: 
  ragdoll: {fileID: 0}
  overrideReactionID: 0
  reactionID: 0
  damageMultiplier: 1
--- !u!114 &11452444
MonoBehaviour:
  m_ObjectHideFlags: 1
  m_PrefabParentObject: {fileID: 0}
  m_PrefabInternal: {fileID: 100100000}
  m_GameObject: {fileID: 169536}
  m_Enabled: 1
  m_EditorHideFlags: 0
  m_Script: {fileID: 11500000, guid: a7a04eca2b705bf47b75d6e9ef2ec850, type: 3}
  m_Name: 
  m_EditorClassIdentifier: 
  ragdoll: {fileID: 0}
  overrideReactionID: 0
  reactionID: 0
  damageMultiplier: 1
--- !u!114 &11456916
MonoBehaviour:
  m_ObjectHideFlags: 1
  m_PrefabParentObject: {fileID: 0}
  m_PrefabInternal: {fileID: 100100000}
  m_GameObject: {fileID: 163420}
  m_Enabled: 1
  m_EditorHideFlags: 0
  m_Script: {fileID: 11500000, guid: 9d3efef3ad62cd548b0f85eb11858ed1, type: 3}
  m_Name: 
  m_EditorClassIdentifier: 
  openCloseEvents: 0
  openCloseWindow: 0
  selectedToolbar: 0
  defaultHitEffect: {fileID: 120346, guid: b8f2fe1ee1a01724cb72f5b0e6bd2eef, type: 2}
  customHitEffects: []
--- !u!114 &11458734
MonoBehaviour:
  m_ObjectHideFlags: 1
  m_PrefabParentObject: {fileID: 0}
  m_PrefabInternal: {fileID: 100100000}
  m_GameObject: {fileID: 163420}
  m_Enabled: 1
  m_EditorHideFlags: 0
  m_Script: {fileID: 11500000, guid: 61a5d2516d5dbbc40b1cfb5cbf17758a, type: 3}
  m_Name: 
  m_EditorClassIdentifier: 
  minAngleX: -90
  maxAngleX: 90
  minAngleY: -90
  maxAngleY: 90
  head: {fileID: 462576}
  strafeHeadWeight: 0.8
  strafeBodyWeight: 0.8
  freeHeadWeight: 1
  freeBodyWeight: 0.4
  distanceToDetect: 10
  smooth: 12
  updateTargetInteration: 1
  obstacleLayer:
    serializedVersion: 2
    m_Bits: 1
  tagsToDetect:
  - LookAt
  animatorTags:
  - Attack
  - LockMovement
  - CustomAction
  followCamera: 1
  awaysFollowCamera: 0
  useLimitAngle: 1
  useUnityAnimatorIK: 0
  offsetSpine: {x: 0, y: 0}
  updateIK: 0
  currentLookTarget: {fileID: 0}
  currentLookPosition: {x: 0, y: 0, z: 0}
  spines: []
  onInitUpdate:
    m_PersistentCalls:
      m_Calls: []
    m_TypeName: UnityEngine.Events.UnityEvent, UnityEngine.CoreModule, Version=0.0.0.0,
      Culture=neutral, PublicKeyToken=null
  onFinishUpdate:
    m_PersistentCalls:
      m_Calls: []
    m_TypeName: UnityEngine.Events.UnityEvent, UnityEngine.CoreModule, Version=0.0.0.0,
      Culture=neutral, PublicKeyToken=null
--- !u!114 &11465684
MonoBehaviour:
  m_ObjectHideFlags: 1
  m_PrefabParentObject: {fileID: 0}
  m_PrefabInternal: {fileID: 100100000}
  m_GameObject: {fileID: 163420}
  m_Enabled: 1
  m_EditorHideFlags: 0
  m_Script: {fileID: 11500000, guid: f1660eeab87ecf543be4a3ca42e6e836, type: 3}
  m_Name: 
  m_EditorClassIdentifier: 
  openCloseEvents: 0
  openCloseWindow: 0
  selectedToolbar: 0
  actionEnter: 0
  actionStay: 0
  actionExit: 0
  OnDoAction:
    m_PersistentCalls:
      m_Calls: []
    m_TypeName: Invector.vCharacterController.vActions.vActionListener+vOnActionHandle,
      Assembly-CSharp, Version=0.0.0.0, Culture=neutral, PublicKeyToken=null
  actionInput:
    useInput: 1
    isAxisInUse: 0
    keyboard: E
    keyboardAxis: 0
    joystick: A
    joystickAxis: 0
    mobile: A
    mobileAxis: 0
    joystickAxisInvert: 0
    keyboardAxisInvert: 0
    mobileAxisInvert: 0
  actionTag: Action
  useRootMotion: 1
  triggerAction: {fileID: 0}
  debugMode: 0
  canTriggerAction: 0
  isPlayingAnimation: 0
  triggerActionOnce: 0
--- !u!114 &11472114
MonoBehaviour:
  m_ObjectHideFlags: 1
  m_PrefabParentObject: {fileID: 0}
  m_PrefabInternal: {fileID: 100100000}
  m_GameObject: {fileID: 152722}
  m_Enabled: 1
  m_EditorHideFlags: 0
  m_Script: {fileID: 11500000, guid: a7a04eca2b705bf47b75d6e9ef2ec850, type: 3}
  m_Name: 
  m_EditorClassIdentifier: 
  ragdoll: {fileID: 0}
  overrideReactionID: 0
  reactionID: 0
  damageMultiplier: 1
--- !u!114 &11490134
MonoBehaviour:
  m_ObjectHideFlags: 1
  m_PrefabParentObject: {fileID: 0}
  m_PrefabInternal: {fileID: 100100000}
  m_GameObject: {fileID: 163420}
  m_Enabled: 1
  m_EditorHideFlags: 0
  m_Script: {fileID: 11500000, guid: 6a6e29aa7f269ea44973293e4f139d58, type: 3}
  m_Name: 
  m_EditorClassIdentifier: 
  openCloseEvents: 0
  openCloseWindow: 0
  selectedToolbar: 0
  removePhysicsAfterDie: 0
  disableColliders: 1
  collisionSource: {fileID: 8242088}
  collisionClip: {fileID: 8300000, guid: 820b4795221a59a4f84bdbb8bc6957e9, type: 3}
  ignoreTags:
  - Weapon
  - Ignore Ragdoll
  iChar: {fileID: 0}
  characterChest: {fileID: 0}
  characterHips: {fileID: 0}
--- !u!114 &11493366
MonoBehaviour:
  m_ObjectHideFlags: 1
  m_PrefabParentObject: {fileID: 0}
  m_PrefabInternal: {fileID: 100100000}
  m_GameObject: {fileID: 131308}
  m_Enabled: 1
  m_EditorHideFlags: 0
  m_Script: {fileID: 11500000, guid: a7a04eca2b705bf47b75d6e9ef2ec850, type: 3}
  m_Name: 
  m_EditorClassIdentifier: 
  ragdoll: {fileID: 0}
  overrideReactionID: 0
  reactionID: 0
  damageMultiplier: 1
--- !u!135 &13544954
SphereCollider:
  m_ObjectHideFlags: 1
  m_PrefabParentObject: {fileID: 0}
  m_PrefabInternal: {fileID: 100100000}
  m_GameObject: {fileID: 190240}
  m_Material: {fileID: 0}
  m_IsTrigger: 0
  m_Enabled: 1
  serializedVersion: 2
  m_Radius: 0.09446011
  m_Center: {x: 0, y: 0.09446011, z: 0}
--- !u!135 &13548896
SphereCollider:
  m_ObjectHideFlags: 1
  m_PrefabParentObject: {fileID: 0}
  m_PrefabInternal: {fileID: 100100000}
  m_GameObject: {fileID: 128070}
  m_Material: {fileID: 0}
  m_IsTrigger: 0
  m_Enabled: 1
  serializedVersion: 2
  m_Radius: 0.1
  m_Center: {x: 0, y: 0, z: 0}
--- !u!135 &13582650
SphereCollider:
  m_ObjectHideFlags: 1
  m_PrefabParentObject: {fileID: 0}
  m_PrefabInternal: {fileID: 100100000}
  m_GameObject: {fileID: 141370}
  m_Material: {fileID: 0}
  m_IsTrigger: 0
  m_Enabled: 1
  serializedVersion: 2
  m_Radius: 0.1
  m_Center: {x: 0, y: 0, z: 0}
--- !u!136 &13602094
CapsuleCollider:
  m_ObjectHideFlags: 1
  m_PrefabParentObject: {fileID: 0}
  m_PrefabInternal: {fileID: 100100000}
  m_GameObject: {fileID: 169536}
  m_Material: {fileID: 0}
  m_IsTrigger: 0
  m_Enabled: 1
  m_Radius: 0.13397498
  m_Height: 0.53589994
  m_Direction: 1
  m_Center: {x: 0, y: 0.26794997, z: 0}
--- !u!136 &13605254
CapsuleCollider:
  m_ObjectHideFlags: 1
  m_PrefabParentObject: {fileID: 0}
  m_PrefabInternal: {fileID: 100100000}
  m_GameObject: {fileID: 145196}
  m_Material: {fileID: 0}
  m_IsTrigger: 0
  m_Enabled: 1
  m_Radius: 0.13422674
  m_Height: 0.53690696
  m_Direction: 1
  m_Center: {x: 0, y: 0.26845348, z: 0}
--- !u!136 &13607548
CapsuleCollider:
  m_ObjectHideFlags: 1
  m_PrefabParentObject: {fileID: 0}
  m_PrefabInternal: {fileID: 100100000}
  m_GameObject: {fileID: 131308}
  m_Material: {fileID: 0}
  m_IsTrigger: 0
  m_Enabled: 1
  m_Radius: 0.095610455
  m_Height: 0.47805226
  m_Direction: 1
  m_Center: {x: 0, y: 0.23902613, z: 0}
--- !u!136 &13627806
CapsuleCollider:
  m_ObjectHideFlags: 1
  m_PrefabParentObject: {fileID: 0}
  m_PrefabInternal: {fileID: 100100000}
  m_GameObject: {fileID: 119248}
  m_Material: {fileID: 0}
  m_IsTrigger: 0
  m_Enabled: 1
  m_Radius: 0.14205167
  m_Height: 0.47350553
  m_Direction: 1
  m_Center: {x: 0, y: 0.23675276, z: 0}
--- !u!136 &13638836
CapsuleCollider:
  m_ObjectHideFlags: 1
  m_PrefabParentObject: {fileID: 0}
  m_PrefabInternal: {fileID: 100100000}
  m_GameObject: {fileID: 108208}
  m_Material: {fileID: 0}
  m_IsTrigger: 0
  m_Enabled: 1
  m_Radius: 0.07218617
  m_Height: 0.2887447
  m_Direction: 1
  m_Center: {x: 0, y: 0.14437234, z: 0}
--- !u!136 &13644104
CapsuleCollider:
  m_ObjectHideFlags: 1
  m_PrefabParentObject: {fileID: 0}
  m_PrefabInternal: {fileID: 100100000}
  m_GameObject: {fileID: 163420}
  m_Material: {fileID: 0}
  m_IsTrigger: 0
  m_Enabled: 1
  m_Radius: 0.29
  m_Height: 1.95
  m_Direction: 1
  m_Center: {x: 0, y: 0.98, z: 0}
--- !u!136 &13645836
CapsuleCollider:
  m_ObjectHideFlags: 1
  m_PrefabParentObject: {fileID: 0}
  m_PrefabInternal: {fileID: 100100000}
  m_GameObject: {fileID: 184648}
  m_Material: {fileID: 0}
  m_IsTrigger: 0
  m_Enabled: 1
  m_Radius: 0.09526046
  m_Height: 0.4763023
  m_Direction: 1
  m_Center: {x: 0, y: 0.23815115, z: 0}
--- !u!136 &13660244
CapsuleCollider:
  m_ObjectHideFlags: 1
  m_PrefabParentObject: {fileID: 0}
  m_PrefabInternal: {fileID: 100100000}
  m_GameObject: {fileID: 152722}
  m_Material: {fileID: 0}
  m_IsTrigger: 0
  m_Enabled: 1
  m_Radius: 0.14207782
  m_Height: 0.47359273
  m_Direction: 1
  m_Center: {x: 0, y: 0.23679636, z: 0}
--- !u!136 &13675024
CapsuleCollider:
  m_ObjectHideFlags: 1
  m_PrefabParentObject: {fileID: 0}
  m_PrefabInternal: {fileID: 100100000}
  m_GameObject: {fileID: 195258}
  m_Material: {fileID: 0}
  m_IsTrigger: 0
  m_Enabled: 1
  m_Radius: 0.07218522
  m_Height: 0.28874087
  m_Direction: 1
  m_Center: {x: 0, y: 0.14437044, z: 0}
--- !u!137 &13755562
SkinnedMeshRenderer:
  m_ObjectHideFlags: 1
  m_PrefabParentObject: {fileID: 0}
  m_PrefabInternal: {fileID: 100100000}
  m_GameObject: {fileID: 154170}
  m_Enabled: 1
  m_CastShadows: 1
  m_ReceiveShadows: 1
  m_DynamicOccludee: 1
  m_MotionVectors: 1
  m_LightProbeUsage: 1
  m_ReflectionProbeUsage: 1
  m_Materials:
  - {fileID: 2100000, guid: e273db19c8bd7704099afa4200e56a2c, type: 2}
  m_StaticBatchInfo:
    firstSubMesh: 0
    subMeshCount: 0
  m_StaticBatchRoot: {fileID: 0}
  m_ProbeAnchor: {fileID: 0}
  m_LightProbeVolumeOverride: {fileID: 0}
  m_ScaleInLightmap: 1
  m_PreserveUVs: 0
  m_IgnoreNormalsForChartDetection: 0
  m_ImportantGI: 0
  m_StitchLightmapSeams: 0
  m_SelectedEditorRenderState: 3
  m_MinimumChartSize: 4
  m_AutoUVMaxDistance: 0.5
  m_AutoUVMaxAngle: 89
  m_LightmapParameters: {fileID: 0}
  m_SortingLayerID: 0
  m_SortingLayer: 0
  m_SortingOrder: 0
  serializedVersion: 2
  m_Quality: 0
  m_UpdateWhenOffscreen: 0
  m_SkinnedMotionVectors: 1
  m_Mesh: {fileID: 4300000, guid: 66a74de1d4a081e49b0a790722fd06ab, type: 3}
  m_Bones:
  - {fileID: 402680}
  - {fileID: 454720}
  - {fileID: 428816}
  - {fileID: 482942}
  - {fileID: 454458}
  - {fileID: 497658}
  - {fileID: 414282}
  - {fileID: 476542}
  - {fileID: 462576}
  - {fileID: 406392}
  - {fileID: 464224}
  - {fileID: 452888}
  - {fileID: 464544}
  - {fileID: 412204}
  - {fileID: 409884}
  - {fileID: 489710}
  - {fileID: 498322}
  - {fileID: 483044}
  - {fileID: 498986}
  - {fileID: 447794}
  - {fileID: 443668}
  - {fileID: 493288}
  - {fileID: 443824}
  - {fileID: 400436}
  - {fileID: 487568}
  - {fileID: 455370}
  - {fileID: 498402}
  - {fileID: 434184}
  m_BlendShapeWeights: []
  m_RootBone: {fileID: 428816}
  m_AABB:
    m_Center: {x: 0.00019869208, y: -0.2157174, z: 0.055152953}
    m_Extent: {x: 0.9590074, y: 0.96235156, z: 0.23825568}
  m_DirtyAABB: 0
--- !u!144 &14410638
CharacterJoint:
  m_ObjectHideFlags: 1
  m_PrefabParentObject: {fileID: 0}
  m_PrefabInternal: {fileID: 100100000}
  m_GameObject: {fileID: 184648}
  m_ConnectedBody: {fileID: 5427426}
  m_Anchor: {x: 0, y: 0, z: 0}
  m_Axis: {x: 1, y: 0, z: 0}
  m_AutoConfigureConnectedAnchor: 1
  m_ConnectedAnchor: {x: 0.0000011123509, y: 0.2887447, z: 0.000000007450581}
  serializedVersion: 2
  m_SwingAxis: {x: 0, y: 0, z: -1}
  m_TwistLimitSpring:
    spring: 0
    damper: 0
  m_LowTwistLimit:
    limit: -90
    bounciness: 0
    contactDistance: 0
  m_HighTwistLimit:
    limit: 0
    bounciness: 0
    contactDistance: 0
  m_SwingLimitSpring:
    spring: 0
    damper: 0
  m_Swing1Limit:
    limit: 0
    bounciness: 0
    contactDistance: 0
  m_Swing2Limit:
    limit: 0
    bounciness: 0
    contactDistance: 0
  m_EnableProjection: 1
  m_ProjectionDistance: 0.1
  m_ProjectionAngle: 180
  m_BreakForce: Infinity
  m_BreakTorque: Infinity
  m_EnableCollision: 0
  m_EnablePreprocessing: 1
  m_MassScale: 1
  m_ConnectedMassScale: 1
--- !u!144 &14411264
CharacterJoint:
  m_ObjectHideFlags: 1
  m_PrefabParentObject: {fileID: 0}
  m_PrefabInternal: {fileID: 100100000}
  m_GameObject: {fileID: 131308}
  m_ConnectedBody: {fileID: 5428268}
  m_Anchor: {x: 0, y: 0, z: 0}
  m_Axis: {x: -1, y: 0, z: 0}
  m_AutoConfigureConnectedAnchor: 1
  m_ConnectedAnchor: {x: 0.0000011552178, y: 0.28874087, z: -0.000000007450581}
  serializedVersion: 2
  m_SwingAxis: {x: 0, y: 0, z: -1}
  m_TwistLimitSpring:
    spring: 0
    damper: 0
  m_LowTwistLimit:
    limit: -90
    bounciness: 0
    contactDistance: 0
  m_HighTwistLimit:
    limit: 0
    bounciness: 0
    contactDistance: 0
  m_SwingLimitSpring:
    spring: 0
    damper: 0
  m_Swing1Limit:
    limit: 0
    bounciness: 0
    contactDistance: 0
  m_Swing2Limit:
    limit: 0
    bounciness: 0
    contactDistance: 0
  m_EnableProjection: 1
  m_ProjectionDistance: 0.1
  m_ProjectionAngle: 180
  m_BreakForce: Infinity
  m_BreakTorque: Infinity
  m_EnableCollision: 0
  m_EnablePreprocessing: 1
  m_MassScale: 1
  m_ConnectedMassScale: 1
--- !u!144 &14422788
CharacterJoint:
  m_ObjectHideFlags: 1
  m_PrefabParentObject: {fileID: 0}
  m_PrefabInternal: {fileID: 100100000}
  m_GameObject: {fileID: 190240}
  m_ConnectedBody: {fileID: 5429300}
  m_Anchor: {x: 0, y: 0, z: 0}
  m_Axis: {x: 1, y: 0, z: 0}
  m_AutoConfigureConnectedAnchor: 1
  m_ConnectedAnchor: {x: 0.00000020818443, y: 0.31248507, z: 0.017782854}
  serializedVersion: 2
  m_SwingAxis: {x: 0, y: 0, z: 1}
  m_TwistLimitSpring:
    spring: 0
    damper: 0
  m_LowTwistLimit:
    limit: -40
    bounciness: 0
    contactDistance: 0
  m_HighTwistLimit:
    limit: 25
    bounciness: 0
    contactDistance: 0
  m_SwingLimitSpring:
    spring: 0
    damper: 0
  m_Swing1Limit:
    limit: 25
    bounciness: 0
    contactDistance: 0
  m_Swing2Limit:
    limit: 0
    bounciness: 0
    contactDistance: 0
  m_EnableProjection: 1
  m_ProjectionDistance: 0.1
  m_ProjectionAngle: 180
  m_BreakForce: Infinity
  m_BreakTorque: Infinity
  m_EnableCollision: 0
  m_EnablePreprocessing: 1
  m_MassScale: 1
  m_ConnectedMassScale: 1
--- !u!144 &14442696
CharacterJoint:
  m_ObjectHideFlags: 1
  m_PrefabParentObject: {fileID: 0}
  m_PrefabInternal: {fileID: 100100000}
  m_GameObject: {fileID: 168322}
  m_ConnectedBody: {fileID: 5402636}
  m_Anchor: {x: 0, y: 0, z: 0}
  m_Axis: {x: 1, y: 0, z: 0}
  m_AutoConfigureConnectedAnchor: 1
  m_ConnectedAnchor: {x: 0.0000891147, y: 0.20692258, z: -0.0030716693}
  serializedVersion: 2
  m_SwingAxis: {x: 0, y: 0, z: 1}
  m_TwistLimitSpring:
    spring: 0
    damper: 0
  m_LowTwistLimit:
    limit: -20
    bounciness: 0
    contactDistance: 0
  m_HighTwistLimit:
    limit: 20
    bounciness: 0
    contactDistance: 0
  m_SwingLimitSpring:
    spring: 0
    damper: 0
  m_Swing1Limit:
    limit: 10
    bounciness: 0
    contactDistance: 0
  m_Swing2Limit:
    limit: 0
    bounciness: 0
    contactDistance: 0
  m_EnableProjection: 1
  m_ProjectionDistance: 0.1
  m_ProjectionAngle: 180
  m_BreakForce: Infinity
  m_BreakTorque: Infinity
  m_EnableCollision: 0
  m_EnablePreprocessing: 1
  m_MassScale: 1
  m_ConnectedMassScale: 1
--- !u!144 &14454778
CharacterJoint:
  m_ObjectHideFlags: 1
  m_PrefabParentObject: {fileID: 0}
  m_PrefabInternal: {fileID: 100100000}
  m_GameObject: {fileID: 169536}
  m_ConnectedBody: {fileID: 5436624}
  m_Anchor: {x: 0, y: 0, z: 0}
  m_Axis: {x: -1, y: 0, z: 0}
  m_AutoConfigureConnectedAnchor: 1
  m_ConnectedAnchor: {x: 0.00000005612219, y: 0.47359273, z: -0.0000011706725}
  serializedVersion: 2
  m_SwingAxis: {x: 0, y: 0, z: 1}
  m_TwistLimitSpring:
    spring: 0
    damper: 0
  m_LowTwistLimit:
    limit: -80
    bounciness: 0
    contactDistance: 0
  m_HighTwistLimit:
    limit: 0
    bounciness: 0
    contactDistance: 0
  m_SwingLimitSpring:
    spring: 0
    damper: 0
  m_Swing1Limit:
    limit: 0
    bounciness: 0
    contactDistance: 0
  m_Swing2Limit:
    limit: 0
    bounciness: 0
    contactDistance: 0
  m_EnableProjection: 1
  m_ProjectionDistance: 0.1
  m_ProjectionAngle: 180
  m_BreakForce: Infinity
  m_BreakTorque: Infinity
  m_EnableCollision: 0
  m_EnablePreprocessing: 1
  m_MassScale: 1
  m_ConnectedMassScale: 1
--- !u!144 &14459350
CharacterJoint:
  m_ObjectHideFlags: 1
  m_PrefabParentObject: {fileID: 0}
  m_PrefabInternal: {fileID: 100100000}
  m_GameObject: {fileID: 152722}
  m_ConnectedBody: {fileID: 5402636}
  m_Anchor: {x: 0, y: 0, z: 0}
  m_Axis: {x: -1, y: 0, z: 0}
  m_AutoConfigureConnectedAnchor: 1
  m_ConnectedAnchor: {x: -0.109072894, y: -0.05303449, z: 0.016008502}
  serializedVersion: 2
  m_SwingAxis: {x: 0, y: 0, z: 1}
  m_TwistLimitSpring:
    spring: 0
    damper: 0
  m_LowTwistLimit:
    limit: -20
    bounciness: 0
    contactDistance: 0
  m_HighTwistLimit:
    limit: 70
    bounciness: 0
    contactDistance: 0
  m_SwingLimitSpring:
    spring: 0
    damper: 0
  m_Swing1Limit:
    limit: 30
    bounciness: 0
    contactDistance: 0
  m_Swing2Limit:
    limit: 0
    bounciness: 0
    contactDistance: 0
  m_EnableProjection: 1
  m_ProjectionDistance: 0.1
  m_ProjectionAngle: 180
  m_BreakForce: Infinity
  m_BreakTorque: Infinity
  m_EnableCollision: 0
  m_EnablePreprocessing: 1
  m_MassScale: 1
  m_ConnectedMassScale: 1
--- !u!144 &14469178
CharacterJoint:
  m_ObjectHideFlags: 1
  m_PrefabParentObject: {fileID: 0}
  m_PrefabInternal: {fileID: 100100000}
  m_GameObject: {fileID: 108208}
  m_ConnectedBody: {fileID: 5429300}
  m_Anchor: {x: 0, y: 0, z: 0}
  m_Axis: {x: 0, y: 0, z: -1}
  m_AutoConfigureConnectedAnchor: 1
  m_ConnectedAnchor: {x: -0.18891455, y: 0.22220632, z: -0.0021221912}
  serializedVersion: 2
  m_SwingAxis: {x: 1, y: 0, z: 0}
  m_TwistLimitSpring:
    spring: 0
    damper: 0
  m_LowTwistLimit:
    limit: -70
    bounciness: 0
    contactDistance: 0
  m_HighTwistLimit:
    limit: 10
    bounciness: 0
    contactDistance: 0
  m_SwingLimitSpring:
    spring: 0
    damper: 0
  m_Swing1Limit:
    limit: 50
    bounciness: 0
    contactDistance: 0
  m_Swing2Limit:
    limit: 0
    bounciness: 0
    contactDistance: 0
  m_EnableProjection: 1
  m_ProjectionDistance: 0.1
  m_ProjectionAngle: 180
  m_BreakForce: Infinity
  m_BreakTorque: Infinity
  m_EnableCollision: 0
  m_EnablePreprocessing: 1
  m_MassScale: 1
  m_ConnectedMassScale: 1
--- !u!144 &14470370
CharacterJoint:
  m_ObjectHideFlags: 1
  m_PrefabParentObject: {fileID: 0}
  m_PrefabInternal: {fileID: 100100000}
  m_GameObject: {fileID: 195258}
  m_ConnectedBody: {fileID: 5429300}
  m_Anchor: {x: 0, y: 0, z: 0}
  m_Axis: {x: 0, y: 0, z: -1}
  m_AutoConfigureConnectedAnchor: 1
  m_ConnectedAnchor: {x: 0.18891548, y: 0.22216693, z: 0.0006815144}
  serializedVersion: 2
  m_SwingAxis: {x: -1, y: 0, z: 0}
  m_TwistLimitSpring:
    spring: 0
    damper: 0
  m_LowTwistLimit:
    limit: -70
    bounciness: 0
    contactDistance: 0
  m_HighTwistLimit:
    limit: 10
    bounciness: 0
    contactDistance: 0
  m_SwingLimitSpring:
    spring: 0
    damper: 0
  m_Swing1Limit:
    limit: 50
    bounciness: 0
    contactDistance: 0
  m_Swing2Limit:
    limit: 0
    bounciness: 0
    contactDistance: 0
  m_EnableProjection: 1
  m_ProjectionDistance: 0.1
  m_ProjectionAngle: 180
  m_BreakForce: Infinity
  m_BreakTorque: Infinity
  m_EnableCollision: 0
  m_EnablePreprocessing: 1
  m_MassScale: 1
  m_ConnectedMassScale: 1
--- !u!144 &14482634
CharacterJoint:
  m_ObjectHideFlags: 1
  m_PrefabParentObject: {fileID: 0}
  m_PrefabInternal: {fileID: 100100000}
  m_GameObject: {fileID: 119248}
  m_ConnectedBody: {fileID: 5402636}
  m_Anchor: {x: 0, y: 0, z: 0}
  m_Axis: {x: -1, y: 0, z: 0}
  m_AutoConfigureConnectedAnchor: 1
  m_ConnectedAnchor: {x: 0.10907311, y: -0.05303451, z: 0.019642694}
  serializedVersion: 2
  m_SwingAxis: {x: 0, y: 0, z: 1}
  m_TwistLimitSpring:
    spring: 0
    damper: 0
  m_LowTwistLimit:
    limit: -20
    bounciness: 0
    contactDistance: 0
  m_HighTwistLimit:
    limit: 70
    bounciness: 0
    contactDistance: 0
  m_SwingLimitSpring:
    spring: 0
    damper: 0
  m_Swing1Limit:
    limit: 30
    bounciness: 0
    contactDistance: 0
  m_Swing2Limit:
    limit: 0
    bounciness: 0
    contactDistance: 0
  m_EnableProjection: 1
  m_ProjectionDistance: 0.1
  m_ProjectionAngle: 180
  m_BreakForce: Infinity
  m_BreakTorque: Infinity
  m_EnableCollision: 0
  m_EnablePreprocessing: 1
  m_MassScale: 1
  m_ConnectedMassScale: 1
--- !u!144 &14491582
CharacterJoint:
  m_ObjectHideFlags: 1
  m_PrefabParentObject: {fileID: 0}
  m_PrefabInternal: {fileID: 100100000}
  m_GameObject: {fileID: 145196}
  m_ConnectedBody: {fileID: 5473968}
  m_Anchor: {x: 0, y: 0, z: 0}
  m_Axis: {x: -1, y: 0, z: 0}
  m_AutoConfigureConnectedAnchor: 1
  m_ConnectedAnchor: {x: 0.00000020703555, y: 0.47350553, z: 0.0000018663704}
  serializedVersion: 2
  m_SwingAxis: {x: 0, y: 0, z: 1}
  m_TwistLimitSpring:
    spring: 0
    damper: 0
  m_LowTwistLimit:
    limit: -80
    bounciness: 0
    contactDistance: 0
  m_HighTwistLimit:
    limit: 0
    bounciness: 0
    contactDistance: 0
  m_SwingLimitSpring:
    spring: 0
    damper: 0
  m_Swing1Limit:
    limit: 0
    bounciness: 0
    contactDistance: 0
  m_Swing2Limit:
    limit: 0
    bounciness: 0
    contactDistance: 0
  m_EnableProjection: 1
  m_ProjectionDistance: 0.1
  m_ProjectionAngle: 180
  m_BreakForce: Infinity
  m_BreakTorque: Infinity
  m_EnableCollision: 0
  m_EnablePreprocessing: 1
  m_MassScale: 1
  m_ConnectedMassScale: 1
--- !u!1001 &100100000
Prefab:
  m_ObjectHideFlags: 1
  serializedVersion: 2
  m_Modification:
    m_TransformParent: {fileID: 0}
    m_Modifications: []
    m_RemovedComponents: []
  m_ParentPrefab: {fileID: 0}
  m_RootGameObject: {fileID: 163420}
  m_IsPrefabParent: 1
