%YAML 1.1
%TAG !u! tag:unity3d.com,2011:
--- !u!1 &105806
GameObject:
  m_ObjectHideFlags: 1
  m_PrefabParentObject: {fileID: 0}
  m_PrefabInternal: {fileID: 100100000}
  serializedVersion: 5
  m_Component:
  - component: {fileID: 446200}
  m_Layer: 8
  m_Name: Neck
  m_TagString: Untagged
  m_Icon: {fileID: 0}
  m_NavMeshLayer: 0
  m_StaticEditorFlags: 0
  m_IsActive: 1
--- !u!1 &119356
GameObject:
  m_ObjectHideFlags: 1
  m_PrefabParentObject: {fileID: 0}
  m_PrefabInternal: {fileID: 100100000}
  serializedVersion: 5
  m_Component:
  - component: {fileID: 461524}
  m_Layer: 8
  m_Name: RightForeArm
  m_TagString: Untagged
  m_Icon: {fileID: 0}
  m_NavMeshLayer: 0
  m_StaticEditorFlags: 0
  m_IsActive: 1
--- !u!1 &127306
GameObject:
  m_ObjectHideFlags: 1
  m_PrefabParentObject: {fileID: 0}
  m_PrefabInternal: {fileID: 100100000}
  serializedVersion: 5
  m_Component:
  - component: {fileID: 476168}
  m_Layer: 8
  m_Name: LeftHandIndex4
  m_TagString: Untagged
  m_Icon: {fileID: 0}
  m_NavMeshLayer: 0
  m_StaticEditorFlags: 0
  m_IsActive: 1
--- !u!1 &127876
GameObject:
  m_ObjectHideFlags: 1
  m_PrefabParentObject: {fileID: 0}
  m_PrefabInternal: {fileID: 100100000}
  serializedVersion: 5
  m_Component:
  - component: {fileID: 407192}
  m_Layer: 8
  m_Name: LeftForeArm
  m_TagString: Untagged
  m_Icon: {fileID: 0}
  m_NavMeshLayer: 0
  m_StaticEditorFlags: 0
  m_IsActive: 1
--- !u!1 &128018
GameObject:
  m_ObjectHideFlags: 1
  m_PrefabParentObject: {fileID: 0}
  m_PrefabInternal: {fileID: 100100000}
  serializedVersion: 5
  m_Component:
  - component: {fileID: 499966}
  m_Layer: 8
  m_Name: RightFoot
  m_TagString: Untagged
  m_Icon: {fileID: 0}
  m_NavMeshLayer: 0
  m_StaticEditorFlags: 0
  m_IsActive: 1
--- !u!1 &130202
GameObject:
  m_ObjectHideFlags: 1
  m_PrefabParentObject: {fileID: 0}
  m_PrefabInternal: {fileID: 100100000}
  serializedVersion: 5
  m_Component:
  - component: {fileID: 415672}
  m_Layer: 8
  m_Name: RightArm
  m_TagString: Untagged
  m_Icon: {fileID: 0}
  m_NavMeshLayer: 0
  m_StaticEditorFlags: 0
  m_IsActive: 1
--- !u!1 &131824
GameObject:
  m_ObjectHideFlags: 1
  m_PrefabParentObject: {fileID: 0}
  m_PrefabInternal: {fileID: 100100000}
  serializedVersion: 5
  m_Component:
  - component: {fileID: 442820}
  m_Layer: 8
  m_Name: LeftArm
  m_TagString: Untagged
  m_Icon: {fileID: 0}
  m_NavMeshLayer: 0
  m_StaticEditorFlags: 0
  m_IsActive: 1
--- !u!1 &131992
GameObject:
  m_ObjectHideFlags: 1
  m_PrefabParentObject: {fileID: 0}
  m_PrefabInternal: {fileID: 100100000}
  serializedVersion: 5
  m_Component:
  - component: {fileID: 423964}
  m_Layer: 8
  m_Name: LeftHandIndex3
  m_TagString: Untagged
  m_Icon: {fileID: 0}
  m_NavMeshLayer: 0
  m_StaticEditorFlags: 0
  m_IsActive: 1
--- !u!1 &133150
GameObject:
  m_ObjectHideFlags: 1
  m_PrefabParentObject: {fileID: 0}
  m_PrefabInternal: {fileID: 100100000}
  serializedVersion: 5
  m_Component:
  - component: {fileID: 495524}
  m_Layer: 8
  m_Name: RightShoulder
  m_TagString: Untagged
  m_Icon: {fileID: 0}
  m_NavMeshLayer: 0
  m_StaticEditorFlags: 0
  m_IsActive: 1
--- !u!1 &137884
GameObject:
  m_ObjectHideFlags: 1
  m_PrefabParentObject: {fileID: 0}
  m_PrefabInternal: {fileID: 100100000}
  serializedVersion: 5
  m_Component:
  - component: {fileID: 477250}
  m_Layer: 8
  m_Name: LeftToe_End
  m_TagString: Untagged
  m_Icon: {fileID: 0}
  m_NavMeshLayer: 0
  m_StaticEditorFlags: 0
  m_IsActive: 1
--- !u!1 &142920
GameObject:
  m_ObjectHideFlags: 1
  m_PrefabParentObject: {fileID: 0}
  m_PrefabInternal: {fileID: 100100000}
  serializedVersion: 5
  m_Component:
  - component: {fileID: 422628}
  m_Layer: 8
  m_Name: RightHandIndex1
  m_TagString: Untagged
  m_Icon: {fileID: 0}
  m_NavMeshLayer: 0
  m_StaticEditorFlags: 0
  m_IsActive: 1
--- !u!1 &149620
GameObject:
  m_ObjectHideFlags: 1
  m_PrefabParentObject: {fileID: 0}
  m_PrefabInternal: {fileID: 100100000}
  serializedVersion: 5
  m_Component:
  - component: {fileID: 471054}
  m_Layer: 8
  m_Name: LeftHandIndex2
  m_TagString: Untagged
  m_Icon: {fileID: 0}
  m_NavMeshLayer: 0
  m_StaticEditorFlags: 0
  m_IsActive: 1
--- !u!1 &154004
GameObject:
  m_ObjectHideFlags: 1
  m_PrefabParentObject: {fileID: 0}
  m_PrefabInternal: {fileID: 100100000}
  serializedVersion: 5
  m_Component:
  - component: {fileID: 412826}
  m_Layer: 8
  m_Name: RightToe_End
  m_TagString: Untagged
  m_Icon: {fileID: 0}
  m_NavMeshLayer: 0
  m_StaticEditorFlags: 0
  m_IsActive: 1
--- !u!1 &154304
GameObject:
  m_ObjectHideFlags: 1
  m_PrefabParentObject: {fileID: 0}
  m_PrefabInternal: {fileID: 100100000}
  serializedVersion: 5
  m_Component:
  - component: {fileID: 430806}
  m_Layer: 8
  m_Name: LeftLeg
  m_TagString: Untagged
  m_Icon: {fileID: 0}
  m_NavMeshLayer: 0
  m_StaticEditorFlags: 0
  m_IsActive: 1
--- !u!1 &157570
GameObject:
  m_ObjectHideFlags: 1
  m_PrefabParentObject: {fileID: 0}
  m_PrefabInternal: {fileID: 100100000}
  serializedVersion: 5
  m_Component:
  - component: {fileID: 463576}
  m_Layer: 8
  m_Name: LeftShoulder
  m_TagString: Untagged
  m_Icon: {fileID: 0}
  m_NavMeshLayer: 0
  m_StaticEditorFlags: 0
  m_IsActive: 1
--- !u!1 &159092
GameObject:
  m_ObjectHideFlags: 1
  m_PrefabParentObject: {fileID: 0}
  m_PrefabInternal: {fileID: 100100000}
  serializedVersion: 5
  m_Component:
  - component: {fileID: 405272}
  m_Layer: 8
  m_Name: LeftToeBase
  m_TagString: Untagged
  m_Icon: {fileID: 0}
  m_NavMeshLayer: 0
  m_StaticEditorFlags: 0
  m_IsActive: 1
--- !u!1 &159364
GameObject:
  m_ObjectHideFlags: 1
  m_PrefabParentObject: {fileID: 0}
  m_PrefabInternal: {fileID: 100100000}
  serializedVersion: 5
  m_Component:
  - component: {fileID: 444030}
  m_Layer: 8
  m_Name: Head
  m_TagString: Untagged
  m_Icon: {fileID: 0}
  m_NavMeshLayer: 0
  m_StaticEditorFlags: 0
  m_IsActive: 1
--- !u!1 &159766
GameObject:
  m_ObjectHideFlags: 1
  m_PrefabParentObject: {fileID: 0}
  m_PrefabInternal: {fileID: 100100000}
  serializedVersion: 5
  m_Component:
  - component: {fileID: 411272}
  m_Layer: 8
  m_Name: HeadTop_End
  m_TagString: Untagged
  m_Icon: {fileID: 0}
  m_NavMeshLayer: 0
  m_StaticEditorFlags: 0
  m_IsActive: 1
--- !u!1 &160340
GameObject:
  m_ObjectHideFlags: 1
  m_PrefabParentObject: {fileID: 0}
  m_PrefabInternal: {fileID: 100100000}
  serializedVersion: 5
  m_Component:
  - component: {fileID: 408280}
  m_Layer: 8
  m_Name: LeftFoot
  m_TagString: Untagged
  m_Icon: {fileID: 0}
  m_NavMeshLayer: 0
  m_StaticEditorFlags: 0
  m_IsActive: 1
--- !u!1 &162398
GameObject:
  m_ObjectHideFlags: 1
  m_PrefabParentObject: {fileID: 0}
  m_PrefabInternal: {fileID: 100100000}
  serializedVersion: 5
  m_Component:
  - component: {fileID: 420948}
  m_Layer: 8
  m_Name: RightHandIndex4
  m_TagString: Untagged
  m_Icon: {fileID: 0}
  m_NavMeshLayer: 0
  m_StaticEditorFlags: 0
  m_IsActive: 1
--- !u!1 &162934
GameObject:
  m_ObjectHideFlags: 1
  m_PrefabParentObject: {fileID: 0}
  m_PrefabInternal: {fileID: 100100000}
  serializedVersion: 5
  m_Component:
  - component: {fileID: 476746}
  m_Layer: 8
  m_Name: LeftHandIndex1
  m_TagString: Untagged
  m_Icon: {fileID: 0}
  m_NavMeshLayer: 0
  m_StaticEditorFlags: 0
  m_IsActive: 1
--- !u!1 &164890
GameObject:
  m_ObjectHideFlags: 0
  m_PrefabParentObject: {fileID: 0}
  m_PrefabInternal: {fileID: 100100000}
  serializedVersion: 5
  m_Component:
  - component: {fileID: 438468}
  - component: {fileID: 13710894}
  m_Layer: 8
  m_Name: VBot_LowPoly
  m_TagString: Untagged
  m_Icon: {fileID: 0}
  m_NavMeshLayer: 0
  m_StaticEditorFlags: 0
  m_IsActive: 1
--- !u!1 &169028
GameObject:
  m_ObjectHideFlags: 1
  m_PrefabParentObject: {fileID: 0}
  m_PrefabInternal: {fileID: 100100000}
  serializedVersion: 5
  m_Component:
  - component: {fileID: 430548}
  m_Layer: 8
  m_Name: Spine
  m_TagString: Untagged
  m_Icon: {fileID: 0}
  m_NavMeshLayer: 0
  m_StaticEditorFlags: 0
  m_IsActive: 1
--- !u!1 &169256
GameObject:
  m_ObjectHideFlags: 1
  m_PrefabParentObject: {fileID: 0}
  m_PrefabInternal: {fileID: 100100000}
  serializedVersion: 5
  m_Component:
  - component: {fileID: 429192}
  m_Layer: 8
  m_Name: Spine2
  m_TagString: Untagged
  m_Icon: {fileID: 0}
  m_NavMeshLayer: 0
  m_StaticEditorFlags: 0
  m_IsActive: 1
--- !u!1 &171820
GameObject:
  m_ObjectHideFlags: 0
  m_PrefabParentObject: {fileID: 0}
  m_PrefabInternal: {fileID: 100100000}
  serializedVersion: 5
  m_Component:
  - component: {fileID: 428086}
  - component: {fileID: 9546258}
  - component: {fileID: 11492892}
  - component: {fileID: 11491576}
  - component: {fileID: 11469148}
  - component: {fileID: 5408210}
  - component: {fileID: 13609680}
  - component: {fileID: 11417258}
  m_Layer: 8
  m_Name: vTopDownController
  m_TagString: Player
  m_Icon: {fileID: 0}
  m_NavMeshLayer: 0
  m_StaticEditorFlags: 0
  m_IsActive: 1
--- !u!1 &172482
GameObject:
  m_ObjectHideFlags: 1
  m_PrefabParentObject: {fileID: 0}
  m_PrefabInternal: {fileID: 100100000}
  serializedVersion: 5
  m_Component:
  - component: {fileID: 422644}
  m_Layer: 8
  m_Name: Spine1
  m_TagString: Untagged
  m_Icon: {fileID: 0}
  m_NavMeshLayer: 0
  m_StaticEditorFlags: 0
  m_IsActive: 1
--- !u!1 &174082
GameObject:
  m_ObjectHideFlags: 1
  m_PrefabParentObject: {fileID: 0}
  m_PrefabInternal: {fileID: 100100000}
  serializedVersion: 5
  m_Component:
  - component: {fileID: 486146}
  m_Layer: 8
  m_Name: RightHandIndex2
  m_TagString: Untagged
  m_Icon: {fileID: 0}
  m_NavMeshLayer: 0
  m_StaticEditorFlags: 0
  m_IsActive: 1
--- !u!1 &182808
GameObject:
  m_ObjectHideFlags: 1
  m_PrefabParentObject: {fileID: 0}
  m_PrefabInternal: {fileID: 100100000}
  serializedVersion: 5
  m_Component:
  - component: {fileID: 485984}
  m_Layer: 8
  m_Name: RightToeBase
  m_TagString: Untagged
  m_Icon: {fileID: 0}
  m_NavMeshLayer: 0
  m_StaticEditorFlags: 0
  m_IsActive: 1
--- !u!1 &184610
GameObject:
  m_ObjectHideFlags: 1
  m_PrefabParentObject: {fileID: 0}
  m_PrefabInternal: {fileID: 100100000}
  serializedVersion: 5
  m_Component:
  - component: {fileID: 449586}
  m_Layer: 8
  m_Name: RightHand
  m_TagString: Untagged
  m_Icon: {fileID: 0}
  m_NavMeshLayer: 0
  m_StaticEditorFlags: 0
  m_IsActive: 1
--- !u!1 &186698
GameObject:
  m_ObjectHideFlags: 1
  m_PrefabParentObject: {fileID: 0}
  m_PrefabInternal: {fileID: 100100000}
  serializedVersion: 5
  m_Component:
  - component: {fileID: 468426}
  m_Layer: 8
  m_Name: RightLeg
  m_TagString: Untagged
  m_Icon: {fileID: 0}
  m_NavMeshLayer: 0
  m_StaticEditorFlags: 0
  m_IsActive: 1
--- !u!1 &189864
GameObject:
  m_ObjectHideFlags: 1
  m_PrefabParentObject: {fileID: 0}
  m_PrefabInternal: {fileID: 100100000}
  serializedVersion: 5
  m_Component:
  - component: {fileID: 481972}
  m_Layer: 8
  m_Name: RightUpLeg
  m_TagString: Untagged
  m_Icon: {fileID: 0}
  m_NavMeshLayer: 0
  m_StaticEditorFlags: 0
  m_IsActive: 1
--- !u!1 &190796
GameObject:
  m_ObjectHideFlags: 1
  m_PrefabParentObject: {fileID: 0}
  m_PrefabInternal: {fileID: 100100000}
  serializedVersion: 5
  m_Component:
  - component: {fileID: 477602}
  m_Layer: 8
  m_Name: LeftHand
  m_TagString: Untagged
  m_Icon: {fileID: 0}
  m_NavMeshLayer: 0
  m_StaticEditorFlags: 0
  m_IsActive: 1
--- !u!1 &190884
GameObject:
  m_ObjectHideFlags: 0
  m_PrefabParentObject: {fileID: 0}
  m_PrefabInternal: {fileID: 100100000}
  serializedVersion: 5
  m_Component:
  - component: {fileID: 400208}
  m_Layer: 8
  m_Name: Hips
  m_TagString: Untagged
  m_Icon: {fileID: 0}
  m_NavMeshLayer: 0
  m_StaticEditorFlags: 0
  m_IsActive: 1
--- !u!1 &194854
GameObject:
  m_ObjectHideFlags: 1
  m_PrefabParentObject: {fileID: 0}
  m_PrefabInternal: {fileID: 100100000}
  serializedVersion: 5
  m_Component:
  - component: {fileID: 498308}
  m_Layer: 8
  m_Name: LeftUpLeg
  m_TagString: Untagged
  m_Icon: {fileID: 0}
  m_NavMeshLayer: 0
  m_StaticEditorFlags: 0
  m_IsActive: 1
--- !u!1 &197136
GameObject:
  m_ObjectHideFlags: 1
  m_PrefabParentObject: {fileID: 0}
  m_PrefabInternal: {fileID: 100100000}
  serializedVersion: 5
  m_Component:
  - component: {fileID: 462990}
  m_Layer: 8
  m_Name: RightHandIndex3
  m_TagString: Untagged
  m_Icon: {fileID: 0}
  m_NavMeshLayer: 0
  m_StaticEditorFlags: 0
  m_IsActive: 1
--- !u!4 &400208
Transform:
  m_ObjectHideFlags: 1
  m_PrefabParentObject: {fileID: 0}
  m_PrefabInternal: {fileID: 100100000}
  m_GameObject: {fileID: 190884}
  m_LocalRotation: {x: -0.0000066532157, y: -0.000011771227, z: 0.0003991176, w: 0.99999994}
  m_LocalPosition: {x: -0.000038921247, y: 1.0609932, z: -0.019340739}
  m_LocalScale: {x: 1, y: 1, z: 1}
  m_Children:
  - {fileID: 498308}
  - {fileID: 481972}
  - {fileID: 430548}
  m_Father: {fileID: 428086}
  m_RootOrder: 0
  m_LocalEulerAnglesHint: {x: 0, y: 0, z: 0}
--- !u!4 &405272
Transform:
  m_ObjectHideFlags: 1
  m_PrefabParentObject: {fileID: 0}
  m_PrefabInternal: {fileID: 100100000}
  m_GameObject: {fileID: 159092}
  m_LocalRotation: {x: 0.28727502, y: 0.00906716, z: -0.0027195273, w: 0.95780134}
  m_LocalPosition: {x: 2.852234e-10, y: 0.15600127, z: 0.0000000015600697}
  m_LocalScale: {x: 1, y: 1, z: 1}
  m_Children:
  - {fileID: 477250}
  m_Father: {fileID: 408280}
  m_RootOrder: 0
  m_LocalEulerAnglesHint: {x: 0, y: 0, z: 0}
--- !u!4 &407192
Transform:
  m_ObjectHideFlags: 1
  m_PrefabParentObject: {fileID: 0}
  m_PrefabInternal: {fileID: 100100000}
  m_GameObject: {fileID: 127876}
  m_LocalRotation: {x: 0.03907181, y: -0.00003206704, z: -0.00082011876, w: 0.99923605}
  m_LocalPosition: {x: -2.6060099e-10, y: 0.28874466, z: 1.6679023e-10}
  m_LocalScale: {x: 1, y: 1, z: 1}
  m_Children:
  - {fileID: 477602}
  m_Father: {fileID: 442820}
  m_RootOrder: 0
  m_LocalEulerAnglesHint: {x: 0, y: 0, z: 0}
--- !u!4 &408280
Transform:
  m_ObjectHideFlags: 1
  m_PrefabParentObject: {fileID: 0}
  m_PrefabInternal: {fileID: 100100000}
  m_GameObject: {fileID: 160340}
  m_LocalRotation: {x: 0.5055165, y: 0.025791276, z: -0.020149022, w: 0.86219597}
  m_LocalPosition: {x: 1.16706644e-11, y: 0.44479036, z: -1.6296877e-11}
  m_LocalScale: {x: 1, y: 1, z: 1}
  m_Children:
  - {fileID: 405272}
  m_Father: {fileID: 430806}
  m_RootOrder: 0
  m_LocalEulerAnglesHint: {x: 0, y: 0, z: 0}
--- !u!4 &411272
Transform:
  m_ObjectHideFlags: 1
  m_PrefabParentObject: {fileID: 0}
  m_PrefabInternal: {fileID: 100100000}
  m_GameObject: {fileID: 159766}
  m_LocalRotation: {x: 0, y: 0, z: 0, w: 1}
  m_LocalPosition: {x: -0, y: 0.2192195, z: 0.08930099}
  m_LocalScale: {x: 1, y: 1, z: 1}
  m_Children: []
  m_Father: {fileID: 444030}
  m_RootOrder: 0
  m_LocalEulerAnglesHint: {x: 0, y: 0, z: 0}
--- !u!4 &412826
Transform:
  m_ObjectHideFlags: 1
  m_PrefabParentObject: {fileID: 0}
  m_PrefabInternal: {fileID: 100100000}
  m_GameObject: {fileID: 154004}
  m_LocalRotation: {x: 0, y: 0, z: 0, w: 1}
  m_LocalPosition: {x: -6.731211e-11, y: 0.06189637, z: 4.6448356e-11}
  m_LocalScale: {x: 1, y: 1, z: 1}
  m_Children: []
  m_Father: {fileID: 485984}
  m_RootOrder: 0
  m_LocalEulerAnglesHint: {x: 0, y: 0, z: 0}
--- !u!4 &415672
Transform:
  m_ObjectHideFlags: 1
  m_PrefabParentObject: {fileID: 0}
  m_PrefabInternal: {fileID: 100100000}
  m_GameObject: {fileID: 130202}
  m_LocalRotation: {x: -0.14271843, y: -0.002395716, z: 0.016612262, w: 0.98962104}
  m_LocalPosition: {x: -2.7400054e-11, y: 0.1297673, z: 5.84846e-10}
  m_LocalScale: {x: 1, y: 1, z: 1}
  m_Children:
  - {fileID: 461524}
  m_Father: {fileID: 495524}
  m_RootOrder: 0
  m_LocalEulerAnglesHint: {x: 0, y: 0, z: 0}
--- !u!4 &420948
Transform:
  m_ObjectHideFlags: 1
  m_PrefabParentObject: {fileID: 0}
  m_PrefabInternal: {fileID: 100100000}
  m_GameObject: {fileID: 162398}
  m_LocalRotation: {x: 0, y: 0, z: 0, w: 1}
  m_LocalPosition: {x: -0.0025483456, y: 0.019486126, z: 0.0005655381}
  m_LocalScale: {x: 1, y: 1, z: 1}
  m_Children: []
  m_Father: {fileID: 462990}
  m_RootOrder: 0
  m_LocalEulerAnglesHint: {x: 0, y: 0, z: 0}
--- !u!4 &422628
Transform:
  m_ObjectHideFlags: 1
  m_PrefabParentObject: {fileID: 0}
  m_PrefabInternal: {fileID: 100100000}
  m_GameObject: {fileID: 142920}
  m_LocalRotation: {x: -0.0010777344, y: -0.000017664484, z: 0.016422523, w: 0.9998646}
  m_LocalPosition: {x: -1.16282074e-10, y: 0.13494258, z: 5.925358e-12}
  m_LocalScale: {x: 1, y: 1, z: 1}
  m_Children:
  - {fileID: 486146}
  m_Father: {fileID: 449586}
  m_RootOrder: 0
  m_LocalEulerAnglesHint: {x: 0, y: 0, z: 0}
--- !u!4 &422644
Transform:
  m_ObjectHideFlags: 1
  m_PrefabParentObject: {fileID: 0}
  m_PrefabInternal: {fileID: 100100000}
  m_GameObject: {fileID: 172482}
  m_LocalRotation: {x: -0.000000009312198, y: 9.0580625e-13, z: 1.1837033e-11, w: 1}
  m_LocalPosition: {x: -0, y: 0.11143211, z: -5.7468797e-11}
  m_LocalScale: {x: 1, y: 1, z: 1}
  m_Children:
  - {fileID: 429192}
  m_Father: {fileID: 430548}
  m_RootOrder: 0
  m_LocalEulerAnglesHint: {x: 0, y: 0, z: 0}
--- !u!4 &423964
Transform:
  m_ObjectHideFlags: 1
  m_PrefabParentObject: {fileID: 0}
  m_PrefabInternal: {fileID: 100100000}
  m_GameObject: {fileID: 131992}
  m_LocalRotation: {x: 0.116371006, y: -0.006259956, z: -0.00526331, w: 0.99317217}
  m_LocalPosition: {x: 0.0012472769, y: 0.02916866, z: -0.00034675846}
  m_LocalScale: {x: 1, y: 1, z: 1}
  m_Children:
  - {fileID: 476168}
  m_Father: {fileID: 471054}
  m_RootOrder: 0
  m_LocalEulerAnglesHint: {x: 0, y: 0, z: 0}
--- !u!4 &428086
Transform:
  m_ObjectHideFlags: 1
  m_PrefabParentObject: {fileID: 0}
  m_PrefabInternal: {fileID: 100100000}
  m_GameObject: {fileID: 171820}
  m_LocalRotation: {x: 0, y: 0, z: 0, w: 1}
  m_LocalPosition: {x: 0, y: 0, z: 0}
  m_LocalScale: {x: 1, y: 1, z: 1}
  m_Children:
  - {fileID: 400208}
  - {fileID: 438468}
  m_Father: {fileID: 0}
  m_RootOrder: 0
  m_LocalEulerAnglesHint: {x: 0, y: 0, z: 0}
--- !u!4 &429192
Transform:
  m_ObjectHideFlags: 1
  m_PrefabParentObject: {fileID: 0}
  m_PrefabInternal: {fileID: 100100000}
  m_GameObject: {fileID: 169256}
  m_LocalRotation: {x: -0.000000009312198, y: 9.0580587e-13, z: 1.1837035e-11, w: 1}
  m_LocalPosition: {x: -0, y: 0.12735091, z: -1.793603e-11}
  m_LocalScale: {x: 1, y: 1, z: 1}
  m_Children:
  - {fileID: 463576}
  - {fileID: 446200}
  - {fileID: 495524}
  m_Father: {fileID: 422644}
  m_RootOrder: 0
  m_LocalEulerAnglesHint: {x: 0, y: 0, z: 0}
--- !u!4 &430548
Transform:
  m_ObjectHideFlags: 1
  m_PrefabParentObject: {fileID: 0}
  m_PrefabInternal: {fileID: 100100000}
  m_GameObject: {fileID: 169028}
  m_LocalRotation: {x: -0.0074174604, y: 0.000014733671, z: -0.0003990192, w: 0.9999724}
  m_LocalPosition: {x: -0, y: 0.0955027, z: -0.0014181613}
  m_LocalScale: {x: 1, y: 1, z: 1}
  m_Children:
  - {fileID: 422644}
  m_Father: {fileID: 400208}
  m_RootOrder: 2
  m_LocalEulerAnglesHint: {x: 0, y: 0, z: 0}
--- !u!4 &430806
Transform:
  m_ObjectHideFlags: 1
  m_PrefabParentObject: {fileID: 0}
  m_PrefabInternal: {fileID: 100100000}
  m_GameObject: {fileID: 154304}
  m_LocalRotation: {x: -0.058214575, y: -0.00040364897, z: 0.011595675, w: 0.99823666}
  m_LocalPosition: {x: 2.9566455e-10, y: 0.4735926, z: -1.3353559e-10}
  m_LocalScale: {x: 1, y: 1, z: 1}
  m_Children:
  - {fileID: 408280}
  m_Father: {fileID: 498308}
  m_RootOrder: 0
  m_LocalEulerAnglesHint: {x: 0, y: 0, z: 0}
--- !u!4 &438468
Transform:
  m_ObjectHideFlags: 1
  m_PrefabParentObject: {fileID: 0}
  m_PrefabInternal: {fileID: 100100000}
  m_GameObject: {fileID: 164890}
  m_LocalRotation: {x: -0.7071068, y: 0.000000004486336, z: 0.0000000030148992, w: 0.7071067}
  m_LocalPosition: {x: -0.000000017695125, y: -0.000000092200935, z: -0.000000009313227}
  m_LocalScale: {x: 99.99998, y: 99.99999, z: 99.99999}
  m_Children: []
  m_Father: {fileID: 428086}
  m_RootOrder: 1
  m_LocalEulerAnglesHint: {x: 0, y: 0, z: 0}
--- !u!4 &442820
Transform:
  m_ObjectHideFlags: 1
  m_PrefabParentObject: {fileID: 0}
  m_PrefabInternal: {fileID: 100100000}
  m_GameObject: {fileID: 131824}
  m_LocalRotation: {x: -0.14250651, y: 0.0035210438, z: -0.024447946, w: 0.9894856}
  m_LocalPosition: {x: -4.5505016e-11, y: 0.1297673, z: 5.837165e-10}
  m_LocalScale: {x: 1, y: 1, z: 1}
  m_Children:
  - {fileID: 407192}
  m_Father: {fileID: 463576}
  m_RootOrder: 0
  m_LocalEulerAnglesHint: {x: 0, y: 0, z: 0}
--- !u!4 &444030
Transform:
  m_ObjectHideFlags: 1
  m_PrefabParentObject: {fileID: 0}
  m_PrefabInternal: {fileID: 100100000}
  m_GameObject: {fileID: 159364}
  m_LocalRotation: {x: 0, y: 0, z: 2.7593034e-28, w: 1}
  m_LocalPosition: {x: -0, y: 0.04212387, z: 0.017159529}
  m_LocalScale: {x: 1, y: 1, z: 1}
  m_Children:
  - {fileID: 411272}
  m_Father: {fileID: 446200}
  m_RootOrder: 0
  m_LocalEulerAnglesHint: {x: 0, y: 0, z: 0}
--- !u!4 &446200
Transform:
  m_ObjectHideFlags: 1
  m_PrefabParentObject: {fileID: 0}
  m_PrefabInternal: {fileID: 100100000}
  m_GameObject: {fileID: 105806}
  m_LocalRotation: {x: 0.0074241078, y: 4.2567862e-19, z: 6.2914315e-18, w: 0.99997246}
  m_LocalPosition: {x: -0, y: 0.14326973, z: 1.3594112e-10}
  m_LocalScale: {x: 1, y: 1, z: 1}
  m_Children:
  - {fileID: 444030}
  m_Father: {fileID: 429192}
  m_RootOrder: 1
  m_LocalEulerAnglesHint: {x: 0, y: 0, z: 0}
--- !u!4 &449586
Transform:
  m_ObjectHideFlags: 1
  m_PrefabParentObject: {fileID: 0}
  m_PrefabInternal: {fileID: 100100000}
  m_GameObject: {fileID: 184610}
  m_LocalRotation: {x: -0.016700627, y: -0.0005096222, z: -0.010599504, w: 0.9998042}
  m_LocalPosition: {x: -9.0358415e-11, y: 0.29559502, z: 5.9328414e-10}
  m_LocalScale: {x: 1, y: 1, z: 1}
  m_Children:
  - {fileID: 422628}
  m_Father: {fileID: 461524}
  m_RootOrder: 0
  m_LocalEulerAnglesHint: {x: 0, y: 0, z: 0}
--- !u!4 &461524
Transform:
  m_ObjectHideFlags: 1
  m_PrefabParentObject: {fileID: 0}
  m_PrefabInternal: {fileID: 100100000}
  m_GameObject: {fileID: 119356}
  m_LocalRotation: {x: 0.039033003, y: -0.0005530927, z: -0.00090611284, w: 0.99923736}
  m_LocalPosition: {x: 6.0039157e-10, y: 0.2887408, z: 3.2335493e-10}
  m_LocalScale: {x: 1, y: 1, z: 1}
  m_Children:
  - {fileID: 449586}
  m_Father: {fileID: 415672}
  m_RootOrder: 0
  m_LocalEulerAnglesHint: {x: 0, y: 0, z: 0}
--- !u!4 &462990
Transform:
  m_ObjectHideFlags: 1
  m_PrefabParentObject: {fileID: 0}
  m_PrefabInternal: {fileID: 100100000}
  m_GameObject: {fileID: 197136}
  m_LocalRotation: {x: -0.013364742, y: 0.00061438815, z: -0.081318274, w: 0.9965984}
  m_LocalPosition: {x: 0.0016789997, y: 0.016475812, z: -0.00078247086}
  m_LocalScale: {x: 1, y: 1, z: 1}
  m_Children:
  - {fileID: 420948}
  m_Father: {fileID: 486146}
  m_RootOrder: 0
  m_LocalEulerAnglesHint: {x: 0, y: 0, z: 0}
--- !u!4 &463576
Transform:
  m_ObjectHideFlags: 1
  m_PrefabParentObject: {fileID: 0}
  m_PrefabInternal: {fileID: 100100000}
  m_GameObject: {fileID: 157570}
  m_LocalRotation: {x: 0.55348104, y: -0.43844208, z: 0.5597608, w: 0.43369934}
  m_LocalPosition: {x: -0.062927015, y: 0.12591468, z: -0.0007250764}
  m_LocalScale: {x: 1, y: 1, z: 1}
  m_Children:
  - {fileID: 442820}
  m_Father: {fileID: 429192}
  m_RootOrder: 0
  m_LocalEulerAnglesHint: {x: 0, y: 0, z: 0}
--- !u!4 &468426
Transform:
  m_ObjectHideFlags: 1
  m_PrefabParentObject: {fileID: 0}
  m_PrefabInternal: {fileID: 100100000}
  m_GameObject: {fileID: 186698}
  m_LocalRotation: {x: -0.0714344, y: 0.00031262974, z: -0.01156631, w: 0.99737823}
  m_LocalPosition: {x: 4.5586915e-10, y: 0.47350538, z: 7.605884e-11}
  m_LocalScale: {x: 1, y: 1, z: 1}
  m_Children:
  - {fileID: 499966}
  m_Father: {fileID: 481972}
  m_RootOrder: 0
  m_LocalEulerAnglesHint: {x: 0, y: 0, z: 0}
--- !u!4 &471054
Transform:
  m_ObjectHideFlags: 1
  m_PrefabParentObject: {fileID: 0}
  m_PrefabInternal: {fileID: 100100000}
  m_GameObject: {fileID: 149620}
  m_LocalRotation: {x: 0.0065425327, y: -0.00027744102, z: 0.00018688994, w: 0.99997854}
  m_LocalPosition: {x: -1.4600375e-11, y: 0.020354053, z: -1.01675536e-10}
  m_LocalScale: {x: 1, y: 1, z: 1}
  m_Children:
  - {fileID: 423964}
  m_Father: {fileID: 476746}
  m_RootOrder: 0
  m_LocalEulerAnglesHint: {x: 0, y: 0, z: 0}
--- !u!4 &476168
Transform:
  m_ObjectHideFlags: 1
  m_PrefabParentObject: {fileID: 0}
  m_PrefabInternal: {fileID: 100100000}
  m_GameObject: {fileID: 127306}
  m_LocalRotation: {x: 0, y: 0, z: 0, w: 1}
  m_LocalPosition: {x: 0.0011486416, y: 0.027415276, z: -0.0072024134}
  m_LocalScale: {x: 1, y: 1, z: 1}
  m_Children: []
  m_Father: {fileID: 423964}
  m_RootOrder: 0
  m_LocalEulerAnglesHint: {x: 0, y: 0, z: 0}
--- !u!4 &476746
Transform:
  m_ObjectHideFlags: 1
  m_PrefabParentObject: {fileID: 0}
  m_PrefabInternal: {fileID: 100100000}
  m_GameObject: {fileID: 162934}
  m_LocalRotation: {x: 0.01155079, y: 0.0003043122, z: 0.026337173, w: 0.99958634}
  m_LocalPosition: {x: 1.3066113e-10, y: 0.102914095, z: 4.7655248e-11}
  m_LocalScale: {x: 1, y: 1, z: 1}
  m_Children:
  - {fileID: 471054}
  m_Father: {fileID: 477602}
  m_RootOrder: 0
  m_LocalEulerAnglesHint: {x: 0, y: 0, z: 0}
--- !u!4 &477250
Transform:
  m_ObjectHideFlags: 1
  m_PrefabParentObject: {fileID: 0}
  m_PrefabInternal: {fileID: 100100000}
  m_GameObject: {fileID: 137884}
  m_LocalRotation: {x: 0, y: 0, z: 0, w: 1}
  m_LocalPosition: {x: -1.304195e-10, y: 0.06294534, z: -4.900726e-11}
  m_LocalScale: {x: 1, y: 1, z: 1}
  m_Children: []
  m_Father: {fileID: 405272}
  m_RootOrder: 0
  m_LocalEulerAnglesHint: {x: 0, y: 0, z: 0}
--- !u!4 &477602
Transform:
  m_ObjectHideFlags: 1
  m_PrefabParentObject: {fileID: 0}
  m_PrefabInternal: {fileID: 100100000}
  m_GameObject: {fileID: 190796}
  m_LocalRotation: {x: -0.016956842, y: 0.0006342437, z: 0.019231074, w: 0.99967104}
  m_LocalPosition: {x: 5.30658e-10, y: 0.2957525, z: 4.037733e-10}
  m_LocalScale: {x: 1, y: 1, z: 1}
  m_Children:
  - {fileID: 476746}
  m_Father: {fileID: 407192}
  m_RootOrder: 0
  m_LocalEulerAnglesHint: {x: 0, y: 0, z: 0}
--- !u!4 &481972
Transform:
  m_ObjectHideFlags: 1
  m_PrefabParentObject: {fileID: 0}
  m_PrefabInternal: {fileID: 100100000}
  m_GameObject: {fileID: 189864}
  m_LocalRotation: {x: 0.00036030787, y: 0.018569753, z: 0.9998142, w: -0.0051595746}
  m_LocalPosition: {x: 0.109073006, y: -0.053034514, z: 0.019643249}
  m_LocalScale: {x: 1, y: 1, z: 1}
  m_Children:
  - {fileID: 468426}
  m_Father: {fileID: 400208}
  m_RootOrder: 1
  m_LocalEulerAnglesHint: {x: 0, y: 0, z: 0}
--- !u!4 &485984
Transform:
  m_ObjectHideFlags: 1
  m_PrefabParentObject: {fileID: 0}
  m_PrefabInternal: {fileID: 100100000}
  m_GameObject: {fileID: 182808}
  m_LocalRotation: {x: 0.2738645, y: -0.014909009, z: 0.0042458726, w: 0.9616434}
  m_LocalPosition: {x: 2.7858296e-10, y: 0.16267334, z: -7.660618e-10}
  m_LocalScale: {x: 1, y: 1, z: 1}
  m_Children:
  - {fileID: 412826}
  m_Father: {fileID: 499966}
  m_RootOrder: 0
  m_LocalEulerAnglesHint: {x: 0, y: 0, z: 0}
--- !u!4 &486146
Transform:
  m_ObjectHideFlags: 1
  m_PrefabParentObject: {fileID: 0}
  m_PrefabInternal: {fileID: 100100000}
  m_GameObject: {fileID: 174082}
  m_LocalRotation: {x: 0.022370938, y: -0.0023024194, z: -0.00047802264, w: 0.999747}
  m_LocalPosition: {x: -6.2249273e-12, y: 0.01147462, z: 9.289891e-11}
  m_LocalScale: {x: 1, y: 1, z: 1}
  m_Children:
  - {fileID: 462990}
  m_Father: {fileID: 422628}
  m_RootOrder: 0
  m_LocalEulerAnglesHint: {x: 0, y: 0, z: 0}
--- !u!4 &495524
Transform:
  m_ObjectHideFlags: 1
  m_PrefabParentObject: {fileID: 0}
  m_PrefabInternal: {fileID: 100100000}
  m_GameObject: {fileID: 133150}
  m_LocalRotation: {x: 0.5576636, y: 0.43515882, z: -0.55568206, w: 0.4368816}
  m_LocalPosition: {x: 0.062927015, y: 0.1259008, z: 0.00020944524}
  m_LocalScale: {x: 1, y: 1, z: 1}
  m_Children:
  - {fileID: 415672}
  m_Father: {fileID: 429192}
  m_RootOrder: 2
  m_LocalEulerAnglesHint: {x: 0, y: 0, z: 0}
--- !u!4 &498308
Transform:
  m_ObjectHideFlags: 1
  m_PrefabParentObject: {fileID: 0}
  m_PrefabInternal: {fileID: 100100000}
  m_GameObject: {fileID: 194854}
  m_LocalRotation: {x: -0.00033125663, y: 0.014089781, z: 0.9998821, w: 0.006105338}
  m_LocalPosition: {x: -0.109073006, y: -0.053034514, z: 0.016008982}
  m_LocalScale: {x: 1, y: 1, z: 1}
  m_Children:
  - {fileID: 430806}
  m_Father: {fileID: 400208}
  m_RootOrder: 0
  m_LocalEulerAnglesHint: {x: 0, y: 0, z: 0}
--- !u!4 &499966
Transform:
  m_ObjectHideFlags: 1
  m_PrefabParentObject: {fileID: 0}
  m_PrefabInternal: {fileID: 100100000}
  m_GameObject: {fileID: 128018}
  m_LocalRotation: {x: 0.5249098, y: -0.023100918, z: 0.019929148, w: 0.8506109}
  m_LocalPosition: {x: 6.401322e-11, y: 0.44603264, z: 4.4789195e-10}
  m_LocalScale: {x: 1, y: 1, z: 1}
  m_Children:
  - {fileID: 485984}
  m_Father: {fileID: 468426}
  m_RootOrder: 0
  m_LocalEulerAnglesHint: {x: 0, y: 0, z: 0}
--- !u!54 &5408210
Rigidbody:
  m_ObjectHideFlags: 1
  m_PrefabParentObject: {fileID: 0}
  m_PrefabInternal: {fileID: 100100000}
  m_GameObject: {fileID: 171820}
  serializedVersion: 2
  m_Mass: 50
  m_Drag: 0
  m_AngularDrag: 0.05
  m_UseGravity: 1
  m_IsKinematic: 0
  m_Interpolate: 0
  m_Constraints: 112
  m_CollisionDetection: 1
--- !u!95 &9546258
Animator:
  serializedVersion: 3
  m_ObjectHideFlags: 1
  m_PrefabParentObject: {fileID: 0}
  m_PrefabInternal: {fileID: 100100000}
  m_GameObject: {fileID: 171820}
  m_Enabled: 1
  m_Avatar: {fileID: 9000000, guid: 66a74de1d4a081e49b0a790722fd06ab, type: 3}
  m_Controller: {fileID: 9100000, guid: b4c495863f6619448863214ae9e6aede, type: 2}
  m_CullingMode: 1
  m_UpdateMode: 0
  m_ApplyRootMotion: 1
  m_LinearVelocityBlending: 0
  m_WarningMessage: 
  m_HasTransformHierarchy: 1
  m_AllowConstantClipSamplingOptimization: 1
--- !u!114 &11417258
MonoBehaviour:
  m_ObjectHideFlags: 1
  m_PrefabParentObject: {fileID: 0}
  m_PrefabInternal: {fileID: 100100000}
  m_GameObject: {fileID: 171820}
  m_Enabled: 1
  m_EditorHideFlags: 0
  m_Script: {fileID: 11500000, guid: 7d2c95dd758dfa4469068df6a1432f05, type: 3}
  m_Name: 
  m_EditorClassIdentifier: 
  openCloseEvents: 0
  openCloseWindow: 1
  selectedToolbar: 0
  actionEnter: 0
  actionStay: 0
  actionExit: 0
  OnDoAction:
    m_PersistentCalls:
      m_Calls: []
    m_TypeName: Invector.vCharacterController.vActions.vActionListener+vOnActionHandle,
      Assembly-CSharp, Version=0.0.0.0, Culture=neutral, PublicKeyToken=null
  actionTag: LadderTrigger
  verticallInput:
    useInput: 1
    isAxisInUse: 0
    keyboard: Vertical
    keyboardAxis: 0
    joystick: LeftAnalogVertical
    joystickAxis: 0
    mobile: Vertical
    mobileAxis: 0
    joystickAxisInvert: 0
    keyboardAxisInvert: 0
    mobileAxisInvert: 0
  enterInput:
    useInput: 1
    isAxisInUse: 0
    keyboard: E
    keyboardAxis: 0
    joystick: A
    joystickAxis: 0
    mobile: A
    mobileAxis: 0
    joystickAxisInvert: 0
    keyboardAxisInvert: 0
    mobileAxisInvert: 0
  exitInput:
    useInput: 1
    isAxisInUse: 0
    keyboard: Space
    keyboardAxis: 0
    joystick: B
    joystickAxis: 0
    mobile: B
    mobileAxis: 0
    joystickAxisInvert: 0
    keyboardAxisInvert: 0
    mobileAxisInvert: 0
  debugMode: 0
  OnEnterLadder:
    m_PersistentCalls:
      m_Calls: []
    m_TypeName: UnityEngine.Events.UnityEvent, UnityEngine.CoreModule, Version=0.0.0.0,
      Culture=neutral, PublicKeyToken=null
  OnExitLadder:
    m_PersistentCalls:
      m_Calls: []
    m_TypeName: UnityEngine.Events.UnityEvent, UnityEngine.CoreModule, Version=0.0.0.0,
      Culture=neutral, PublicKeyToken=null
--- !u!114 &11469148
MonoBehaviour:
  m_ObjectHideFlags: 1
  m_PrefabParentObject: {fileID: 0}
  m_PrefabInternal: {fileID: 100100000}
  m_GameObject: {fileID: 171820}
  m_Enabled: 1
  m_EditorHideFlags: 0
  m_Script: {fileID: 11500000, guid: f1660eeab87ecf543be4a3ca42e6e836, type: 3}
  m_Name: 
  m_EditorClassIdentifier: 
  openCloseEvents: 0
  openCloseWindow: 0
  selectedToolbar: 0
  actionEnter: 0
  actionStay: 0
  actionExit: 0
  OnDoAction:
    m_PersistentCalls:
      m_Calls: []
    m_TypeName: Invector.vCharacterController.vActions.vActionListener+vOnActionHandle,
      Assembly-CSharp, Version=0.0.0.0, Culture=neutral, PublicKeyToken=null
  actionInput:
    useInput: 1
    isAxisInUse: 0
    keyboard: E
    keyboardAxis: 0
    joystick: A
    joystickAxis: 0
    mobile: A
    mobileAxis: 0
    joystickAxisInvert: 0
    keyboardAxisInvert: 0
    mobileAxisInvert: 0
  actionTag: Action
  useRootMotion: 1
  triggerAction: {fileID: 0}
  debugMode: 0
  canTriggerAction: 0
  isPlayingAnimation: 0
  triggerActionOnce: 0
--- !u!114 &11491576
MonoBehaviour:
  m_ObjectHideFlags: 1
  m_PrefabParentObject: {fileID: 0}
  m_PrefabInternal: {fileID: 100100000}
  m_GameObject: {fileID: 171820}
  m_Enabled: 1
  m_EditorHideFlags: 0
  m_Script: {fileID: 11500000, guid: 5deb9ff5611cb9d4596d397ac57ee8c7, type: 3}
  m_Name: 
  m_EditorClassIdentifier: 
  openCloseEvents: 0
  openCloseWindow: 1
  selectedToolbar: 0
  lockInput: 0
  unlockCursorOnStart: 0
  showCursorOnStart: 0
  horizontalInput:
    useInput: 1
    isAxisInUse: 0
    keyboard: Horizontal
    keyboardAxis: 0
    joystick: LeftAnalogHorizontal
    joystickAxis: 0
    mobile: Horizontal
    mobileAxis: 0
    joystickAxisInvert: 0
    keyboardAxisInvert: 0
    mobileAxisInvert: 0
  verticallInput:
    useInput: 1
    isAxisInUse: 0
    keyboard: Vertical
    keyboardAxis: 0
    joystick: LeftAnalogVertical
    joystickAxis: 0
    mobile: Vertical
    mobileAxis: 0
    joystickAxisInvert: 0
    keyboardAxisInvert: 0
    mobileAxisInvert: 0
  jumpInput:
    useInput: 1
    isAxisInUse: 0
    keyboard: Space
    keyboardAxis: 0
    joystick: X
    joystickAxis: 0
    mobile: X
    mobileAxis: 0
    joystickAxisInvert: 0
    keyboardAxisInvert: 0
    mobileAxisInvert: 0
  rollInput:
    useInput: 1
    isAxisInUse: 0
    keyboard: Q
    keyboardAxis: 0
    joystick: B
    joystickAxis: 0
    mobile: B
    mobileAxis: 0
    joystickAxisInvert: 0
    keyboardAxisInvert: 0
    mobileAxisInvert: 0
  strafeInput:
    useInput: 1
    isAxisInUse: 0
    keyboard: Tab
    keyboardAxis: 0
    joystick: RightStickClick
    joystickAxis: 0
    mobile: RightStickClick
    mobileAxis: 0
    joystickAxisInvert: 0
    keyboardAxisInvert: 0
    mobileAxisInvert: 0
  sprintInput:
    useInput: 1
    isAxisInUse: 0
    keyboard: LeftShift
    keyboardAxis: 0
    joystick: LeftStickClick
    joystickAxis: 0
    mobile: LeftStickClick
    mobileAxis: 0
    joystickAxisInvert: 0
    keyboardAxisInvert: 0
    mobileAxisInvert: 0
  crouchInput:
    useInput: 1
    isAxisInUse: 0
    keyboard: C
    keyboardAxis: 0
    joystick: Y
    joystickAxis: 0
    mobile: Y
    mobileAxis: 0
    joystickAxisInvert: 0
    keyboardAxisInvert: 0
    mobileAxisInvert: 0
  lockCameraInput: 0
  ignoreCameraRotation: 0
  rotateToCameraWhileStrafe: 0
  rotateCameraXInput:
    useInput: 1
    isAxisInUse: 0
    keyboard: Mouse X
    keyboardAxis: 0
    joystick: RightAnalogHorizontal
    joystickAxis: 0
    mobile: Mouse X
    mobileAxis: 0
    joystickAxisInvert: 0
    keyboardAxisInvert: 0
    mobileAxisInvert: 0
  rotateCameraYInput:
    useInput: 1
    isAxisInUse: 0
    keyboard: Mouse Y
    keyboardAxis: 0
    joystick: RightAnalogVertical
    joystickAxis: 0
    mobile: Mouse Y
    mobileAxis: 0
    joystickAxisInvert: 0
    keyboardAxisInvert: 0
    mobileAxisInvert: 0
  cameraZoomInput:
    useInput: 1
    isAxisInUse: 0
    keyboard: Mouse ScrollWheel
    keyboardAxis: 0
    joystick: 
    joystickAxis: 0
    mobile: 
    mobileAxis: 0
    joystickAxisInvert: 0
    keyboardAxisInvert: 0
    mobileAxisInvert: 0
  tpCamera: {fileID: 0}
  customCameraState: 
  customlookAtPoint: 
  changeCameraState: 0
  smoothCameraState: 0
  keepDirection: 0
  OnLateUpdate:
    m_PersistentCalls:
      m_Calls: []
    m_TypeName: UnityEngine.Events.UnityEvent, UnityEngine.CoreModule, Version=0.0.0.0,
      Culture=neutral, PublicKeyToken=null
  cc: {fileID: 0}
  hud: {fileID: 0}
--- !u!114 &11492892
MonoBehaviour:
  m_ObjectHideFlags: 1
  m_PrefabParentObject: {fileID: 0}
  m_PrefabInternal: {fileID: 100100000}
  m_GameObject: {fileID: 171820}
  m_Enabled: 1
  m_EditorHideFlags: 0
  m_Script: {fileID: 11500000, guid: 0a0bd5d6f6ca7334c80d1f8398849c1c, type: 3}
  m_Name: 
  m_EditorClassIdentifier: 
  openCloseEvents: 0
  openCloseWindow: 1
  selectedToolbar: 1
  _isDead: 0
  _currentHealth: 0
  maxHealth: 100
  healthRecovery: 0
  healthRecoveryDelay: 0
  currentHealthRecoveryDelay: 0
  onReceiveDamage:
    m_PersistentCalls:
      m_Calls: []
    m_TypeName: Invector.vHealthController+OnReceiveDamage, Assembly-CSharp, Version=0.0.0.0,
      Culture=neutral, PublicKeyToken=null
  onDead:
    m_PersistentCalls:
      m_Calls: []
    m_TypeName: Invector.vHealthController+OnDead, Assembly-CSharp, Version=0.0.0.0,
      Culture=neutral, PublicKeyToken=null
  deathBy: 0
  removeComponentsAfterDie: 0
  onActiveRagdoll:
    m_PersistentCalls:
      m_Calls: []
    m_TypeName: Invector.vCharacterController.OnActiveRagdoll, Assembly-CSharp, Version=0.0.0.0,
      Culture=neutral, PublicKeyToken=null
  onActionEnter:
    m_PersistentCalls:
      m_Calls: []
    m_TypeName: Invector.vCharacterController.OnActionHandle, Assembly-CSharp, Version=0.0.0.0,
      Culture=neutral, PublicKeyToken=null
  onActionStay:
    m_PersistentCalls:
      m_Calls: []
    m_TypeName: Invector.vCharacterController.OnActionHandle, Assembly-CSharp, Version=0.0.0.0,
      Culture=neutral, PublicKeyToken=null
  onActionExit:
    m_PersistentCalls:
      m_Calls: []
    m_TypeName: Invector.vCharacterController.OnActionHandle, Assembly-CSharp, Version=0.0.0.0,
      Culture=neutral, PublicKeyToken=null
  debugWindow: 0
  maxStamina: 200
  staminaRecovery: 1.2
  currentStamina: 0
  currentStaminaRecoveryDelay: 0
  sprintStamina: 30
  jumpStamina: 30
  rollStamina: 25
  OnStaminaEnd:
    m_PersistentCalls:
      m_Calls: []
    m_TypeName: UnityEngine.Events.UnityEvent, UnityEngine.CoreModule, Version=0.0.0.0,
      Culture=neutral, PublicKeyToken=null
  groundLayer:
    serializedVersion: 2
    m_Bits: 1
  autoCrouchLayer:
    serializedVersion: 2
    m_Bits: 1
  headDetect: 0.95
  stopMoveLayer:
    serializedVersion: 2
    m_Bits: 4096
  stopMoveHeight: 0.65
  stopMoveDistance: 0.5
  useRootMotion: 0
  locomotionType: 0
  freeSpeed:
    rotationSpeed: 10
    walkByDefault: 0
    walkSpeed: 2
    runningSpeed: 3
    sprintSpeed: 4
    crouchSpeed: 2
  strafeSpeed:
    rotationSpeed: 10
    walkByDefault: 0
    walkSpeed: 2
    runningSpeed: 3
    sprintSpeed: 4
    crouchSpeed: 2
  rotateByWorld: 0
  turnOnSpotAnim: 0
  rollControl: 0
  randomIdleTime: 0
  jumpAirControl: 1
  jumpTimer: 0.3
  jumpCounter: 0
  jumpForward: 3
  jumpHeight: 4
  groundCheckMethod: 1
  groundMinDistance: 0.25
  groundMaxDistance: 0.5
  stepOffsetEnd: 0.45
  stepOffsetStart: 0
  stepSmooth: 4
  slopeLimit: 45
  slideVelocity: 7
  extraGravity: -10
  ragdollVel: -16
  isGrounded: 0
  isCrouching: 0
  inCrouchArea: 0
  isSprinting: 0
  isSliding: 0
  stopMove: 0
  autoCrouch: 0
  isRolling: 0
  isJumping: 0
  isGettingUp: 0
  inTurn: 0
  quickStop: 0
  landHigh: 0
  customAction: 0
  targetDirection: {x: 0, y: 0, z: 0}
  targetRotation: {x: 0, y: 0, z: 0, w: 0}
  strafeMagnitude: 0
  freeRotation: {x: 0, y: 0, z: 0, w: 0}
  keepDirection: 0
  oldInput: {x: 0, y: 0}
  _rigidbody: {fileID: 0}
  frictionPhysics: {fileID: 0}
  maxFrictionPhysics: {fileID: 0}
  slippyPhysics: {fileID: 0}
  _capsuleCollider: {fileID: 0}
  lockMovement: 0
  lockInStrafe: 0
  lockSpeed: 0
  lockRotation: 0
  forceRootMotion: 0
  colliderRadius: 0
  colliderHeight: 0
  colliderCenter: {x: 0, y: 0, z: 0}
  input: {x: 0, y: 0}
  speed: 0
  direction: 0
  verticalVelocity: 0
  velocity: 0
  jumpMultiplier: 1
  matchTarget: {fileID: 0}
  lookAtWeight: 0
  mouseLayerMask:
    serializedVersion: 2
    m_Bits: 1
  rotateToMousePoint: 0
  lookPos: {x: 0, y: 0, z: 0}
  topDownMove: {x: 0, y: 0, z: 0}
--- !u!136 &13609680
CapsuleCollider:
  m_ObjectHideFlags: 1
  m_PrefabParentObject: {fileID: 0}
  m_PrefabInternal: {fileID: 100100000}
  m_GameObject: {fileID: 171820}
  m_Material: {fileID: 0}
  m_IsTrigger: 0
  m_Enabled: 1
  m_Radius: 0.29
  m_Height: 1.95
  m_Direction: 1
  m_Center: {x: 0, y: 0.98, z: 0}
--- !u!137 &13710894
SkinnedMeshRenderer:
  m_ObjectHideFlags: 1
  m_PrefabParentObject: {fileID: 0}
  m_PrefabInternal: {fileID: 100100000}
  m_GameObject: {fileID: 164890}
  m_Enabled: 1
  m_CastShadows: 1
  m_ReceiveShadows: 1
  m_DynamicOccludee: 1
  m_MotionVectors: 1
  m_LightProbeUsage: 1
  m_ReflectionProbeUsage: 1
  m_Materials:
  - {fileID: 2100000, guid: e273db19c8bd7704099afa4200e56a2c, type: 2}
  m_StaticBatchInfo:
    firstSubMesh: 0
    subMeshCount: 0
  m_StaticBatchRoot: {fileID: 0}
  m_ProbeAnchor: {fileID: 0}
  m_LightProbeVolumeOverride: {fileID: 0}
  m_ScaleInLightmap: 1
  m_PreserveUVs: 0
  m_IgnoreNormalsForChartDetection: 0
  m_ImportantGI: 0
  m_StitchLightmapSeams: 0
  m_SelectedEditorRenderState: 3
  m_MinimumChartSize: 4
  m_AutoUVMaxDistance: 0.5
  m_AutoUVMaxAngle: 89
  m_LightmapParameters: {fileID: 0}
  m_SortingLayerID: 0
  m_SortingLayer: 0
  m_SortingOrder: 0
  serializedVersion: 2
  m_Quality: 0
  m_UpdateWhenOffscreen: 0
  m_SkinnedMotionVectors: 1
  m_Mesh: {fileID: 4300000, guid: 66a74de1d4a081e49b0a790722fd06ab, type: 3}
  m_Bones:
  - {fileID: 430548}
  - {fileID: 422644}
  - {fileID: 400208}
  - {fileID: 429192}
  - {fileID: 498308}
  - {fileID: 446200}
  - {fileID: 463576}
  - {fileID: 442820}
  - {fileID: 444030}
  - {fileID: 495524}
  - {fileID: 415672}
  - {fileID: 407192}
  - {fileID: 461524}
  - {fileID: 449586}
  - {fileID: 477602}
  - {fileID: 476746}
  - {fileID: 471054}
  - {fileID: 423964}
  - {fileID: 422628}
  - {fileID: 486146}
  - {fileID: 462990}
  - {fileID: 481972}
  - {fileID: 430806}
  - {fileID: 468426}
  - {fileID: 408280}
  - {fileID: 405272}
  - {fileID: 499966}
  - {fileID: 485984}
  m_BlendShapeWeights: []
  m_RootBone: {fileID: 400208}
  m_AABB:
    m_Center: {x: 0.00019869208, y: -0.2157174, z: 0.055152953}
    m_Extent: {x: 0.9590074, y: 0.96235156, z: 0.23825568}
  m_DirtyAABB: 0
--- !u!1001 &100100000
Prefab:
  m_ObjectHideFlags: 1
  serializedVersion: 2
  m_Modification:
    m_TransformParent: {fileID: 0}
    m_Modifications: []
    m_RemovedComponents: []
  m_ParentPrefab: {fileID: 0}
  m_RootGameObject: {fileID: 171820}
  m_IsPrefabParent: 1
